estimate,mu,sigma,eta,logp
data,-0.345451,0.56694,0,-32.939
guess,-0.61225,1.31981,-0.570935,-40.7183
map,-0.383754,0.655014,-0.379879,-32.2474
sample,-0.49861,0.882958,-1.19127,-34.5499
sample,-0.468023,0.878243,-1.22792,-34.443
sample,-0.354032,0.812107,-1.43396,-33.8633
sample,-0.397613,0.799689,-0.491112,-33.1315
sample,-0.41555,0.793267,0.567739,-33.562
sample,-0.312432,0.658459,0.510575,-32.7343
sample,-0.451409,0.751708,-0.200899,-32.8127
sample,-0.309666,0.645132,-0.203606,-32.4235
sample,-0.4442,0.740126,0.361114,-32.9993
sample,-0.358003,0.589379,-0.339252,-32.5709
sample,-0.317962,0.832124,-0.159778,-33.5661
sample,-0.326792,0.526636,0.122081,-33.8775
sample,-0.618858,0.795701,-0.3906,-34.1989
sample,-0.698303,0.858615,-0.460341,-35.4944
sample,-0.312972,0.612981,-1.35882,-33.085
sample,-0.434545,0.693177,-1.46728,-32.9351
sample,-0.445511,0.765841,-0.54002,-32.8857
sample,-0.345852,0.57504,-0.276826,-32.7672
sample,-0.317199,0.606397,0.996862,-33.4227
sample,-0.321743,0.648971,1.0213,-33.2705
sample,-0.35094,0.559411,-0.347173,-32.9838
sample,-0.327476,0.51886,-0.322203,-33.9901
sample,-0.421348,0.837987,0.543187,-34.0344
sample,-0.452012,0.770114,0.489777,-33.3793
sample,-0.350523,0.638538,0.396455,-32.577
sample,-0.300765,0.63335,-0.667434,-32.5601
sample,-0.607717,0.673668,-1.16908,-33.8113
sample,-0.476285,0.696151,-0.401173,-32.56
sample,-0.026268,0.752656,-0.393738,-35.5769
sample,0.00248345,0.747945,-0.291777,-36.0285
sample,-0.476864,0.534233,-0.127526,-33.8824
sample,-0.488696,0.600658,-0.2092,-32.866
sample,-0.472565,0.598931,-1.18986,-32.9984
sample,-0.228338,0.688723,-0.428271,-32.9656
sample,-0.423741,0.833563,-0.625101,-33.5426
sample,-0.347556,0.573276,-0.264037,-32.787
sample,-0.262614,0.970122,0.11232,-35.5301
sample,-0.256748,0.877964,0.291996,-34.441
sample,-0.224164,0.872709,-0.790397,-34.5439
sample,-0.338152,0.885353,-0.88879,-34.3109
sample,-0.440686,0.652116,-0.617976,-32.3599
sample,-0.566246,0.816732,-1.28309,-34.192
sample,-0.254699,0.561797,0.689006,-34.0091
sample,-0.405125,0.735343,-1.48868,-33.1657
sample,-0.399861,0.734909,-1.50235,-33.1791
sample,-0.196978,0.641035,-0.809752,-33.5115
sample,-0.585781,0.701745,-0.406108,-33.4125
sample,-0.654067,0.724599,-0.544432,-34.2315
sample,-0.736568,0.737933,-0.54294,-35.4518
sample,-0.671743,0.729388,-0.556723,-34.4722
sample,-0.171412,0.695124,-2.93206,-37.3532
sample,-0.136581,0.711073,-2.89816,-37.7736
sample,-0.0363829,0.649804,-2.8501,-39.8218
sample,-0.671972,0.652313,-2.7508,-36.8856
sample,-0.158017,0.687307,-2.23281,-35.8298
sample,-0.646236,0.893586,-1.33892,-35.555
sample,-0.217036,0.552078,-1.65448,-35.2563
sample,-0.196675,0.596402,-1.73316,-34.9073
sample,-0.597214,0.526819,-1.94632,-36.6056
sample,-0.318808,0.563488,-0.411349,-33.046
sample,-0.394342,0.855493,0.289744,-33.9865
sample,-0.410861,0.614542,-2.17998,-33.9662
sample,-0.396938,0.72351,-1.20162,-32.8136
sample,-0.410682,0.628527,-1.2506,-32.674
sample,-0.453407,0.715574,-0.726961,-32.5895
sample,-0.471102,0.701948,-0.841488,-32.6266
sample,-0.436489,0.74224,-0.734883,-32.717
sample,-0.4611,0.707177,0.681156,-33.1903
sample,-0.490985,0.690123,0.706883,-33.334
sample,-0.381083,0.595259,0.41964,-32.8125
sample,-0.422461,0.789732,0.529153,-33.5059
sample,-0.559017,0.769631,-0.381769,-33.4964
sample,-0.461184,0.688821,-0.504848,-32.4679
sample,-0.568323,0.694208,-0.630303,-33.2149
sample,-0.525891,0.59042,-1.65009,-33.9054
sample,-0.413789,0.563931,0.226601,-33.1082
sample,-0.41863,0.72008,-0.143938,-32.5245
sample,-0.37654,0.639389,-0.465634,-32.2682
sample,-0.494466,0.600055,-0.495798,-32.8767
sample,-0.309859,0.590557,-0.40656,-32.7361
sample,-0.552124,0.781576,-1.18436,-33.7293
sample,-0.0674678,0.888885,-1.16797,-36.3631
sample,-0.126989,0.86201,-1.17976,-35.5005
sample,-0.056885,0.758769,-1.15405,-35.6673
sample,-0.42131,0.624209,-1.41016,-32.8508
sample,-0.516509,0.821914,-1.64962,-34.3417
sample,-0.78563,0.838603,-1.59081,-36.7566
sample,-0.760027,0.875526,-1.60965,-36.6795
sample,-0.802105,0.838561,-1.62555,-37.012
sample,-0.656552,0.867764,-1.63643,-35.629
sample,-0.614396,0.760716,-1.58664,-34.3883
sample,-0.351673,0.659257,-1.73,-33.2426
sample,-0.354534,0.65637,-1.72469,-33.2255
sample,-0.468022,0.663253,0.706512,-33.1443
sample,-0.392938,0.564419,0.82539,-33.6089
sample,-0.325175,0.728664,1.93336,-35.162
sample,-0.154936,0.828318,2.09988,-36.9509
sample,-0.500373,0.568158,1.38875,-35.1245
sample,-0.51811,0.966981,1.27661,-37.0805
sample,-0.509202,0.967736,1.29637,-37.0796
sample,-0.550973,0.616839,1.10305,-34.6326
sample,-0.35784,0.548275,1.107,-34.2477
sample,-0.129121,0.667365,1.00058,-34.7193
sample,-0.144762,0.664481,0.925073,-34.4464
sample,-0.508023,0.733126,1.30694,-34.556
sample,-0.286615,0.826394,1.39049,-34.9993
sample,-0.306278,0.923693,1.51706,-36.3878
sample,-0.264622,0.9654,1.48645,-36.9334
sample,-0.555937,0.594797,1.08575,-34.8952
sample,-0.520746,0.666566,1.08463,-34.0763
sample,-0.310304,0.668764,-1.01617,-32.6628
sample,-0.342584,0.626078,-1.01819,-32.5871
sample,-0.44678,0.700203,-1.43151,-32.9495
sample,-0.55167,0.699005,-2.13129,-34.3394
sample,-0.355268,0.703013,-1.74691,-33.3706
sample,-0.386423,0.609602,-1.82599,-33.4356
sample,-0.291377,0.572198,-1.61558,-33.9639
sample,-0.160665,0.659482,-1.57409,-34.6906
sample,-0.197387,0.776337,-1.79732,-34.9106
sample,-0.225403,0.756899,-1.79399,-34.5166
sample,-0.146375,0.71196,-1.73687,-35.0818
sample,-0.357847,0.649705,-1.7075,-33.194
sample,-0.220301,0.791909,-1.78063,-34.8098
sample,-0.248461,0.602704,-1.46023,-33.8055
sample,-0.533918,0.693989,-1.40711,-33.3032
sample,-0.372005,0.812089,-1.53984,-33.9494
sample,-0.439128,0.593902,-0.817697,-32.6865
sample,-0.403128,0.729396,0.309277,-32.7793
sample,-0.456122,0.717769,0.195094,-32.7829
sample,-0.343951,0.636148,0.247822,-32.493
sample,-0.370647,0.645006,-0.544504,-32.2745
sample,-0.319444,0.672804,-0.616131,-32.4247
sample,-0.305525,0.658075,-1.33702,-32.9653
sample,-0.472369,0.761565,-1.38895,-33.3605
sample,-0.503011,0.723761,-1.40839,-33.2389
sample,-0.383537,0.757106,-1.40665,-33.2575
sample,-0.391969,0.716864,-0.717052,-32.4956
sample,-0.172265,0.627429,-1.54016,-34.6631
sample,-0.13037,0.664332,-1.43686,-34.935
sample,-0.664808,0.570468,-1.19488,-35.9518
sample,-0.5497,0.645167,-1.04855,-33.2089
sample,-0.292212,0.697757,-1.18093,-32.96
sample,-0.484578,0.618959,-0.702036,-32.6874
sample,-0.336628,0.64125,-0.737747,-32.4091
sample,-0.390157,0.653416,-1.09536,-32.5028
sample,-0.332371,0.569494,-1.04735,-33.1483
sample,-0.355997,0.58281,-0.666239,-32.6948
sample,-0.433135,0.54976,-0.683138,-33.2461
sample,-0.3796,0.636279,-0.742814,-32.3375
sample,-0.32451,0.698902,1.28594,-33.7427
sample,-0.431574,0.637337,-0.347863,-32.3401
sample,-0.234002,0.836109,-0.332869,-33.9277
sample,-0.361463,0.706721,-0.313136,-32.3982
sample,-0.450975,0.583401,-0.306078,-32.7859
sample,-0.516956,0.60931,-0.338996,-32.9972
sample,-0.49853,0.606321,0.77687,-33.6677
sample,-0.297815,0.671832,0.539529,-32.8194
sample,-0.468962,0.65265,-0.0267969,-32.5575
sample,-0.47358,0.634487,-1.04444,-32.6913
sample,-0.39013,0.695309,-0.792056,-32.4174
sample,-0.384598,0.583785,-0.574812,-32.6248
sample,-0.39367,0.70698,-0.638813,-32.4198
sample,-0.362961,0.718923,-0.328058,-32.4622
sample,-0.165141,0.553436,-1.03099,-35.3754
sample,-0.140212,0.550799,-0.995496,-35.9082
sample,-0.186068,0.569768,-0.977124,-34.6048
sample,-0.582253,0.849138,-0.813175,-34.3866
sample,-0.356183,0.825471,-0.883321,-33.5567
sample,-0.461951,0.89211,-1.322,-34.6835
sample,-0.231097,0.792561,-1.36684,-34.1685
sample,-0.306667,0.696254,-1.39319,-33.0899
sample,-0.335024,0.681459,0.0158754,-32.4105
sample,-0.41656,0.577541,-0.830693,-32.8077
sample,-0.28941,0.647672,-0.8329,-32.6667
sample,-0.288768,0.64469,-0.828653,-32.6741
sample,-0.567409,0.764936,-0.837343,-33.5508
sample,-0.582737,0.662046,-0.86846,-33.4226
sample,-0.584,0.690426,-0.790668,-33.389
sample,-0.223639,0.67348,-1.10815,-33.3702
sample,-0.282575,0.704716,-0.265283,-32.6327
sample,-0.423973,0.713732,-0.337342,-32.4648
sample,-0.425588,0.657512,-0.861034,-32.3961
sample,-0.28197,0.703883,-0.833958,-32.7878
sample,-0.385579,0.68394,-0.865932,-32.4114
sample,-0.408817,0.695669,-1.49587,-32.9522
sample,-0.397475,0.634963,-0.750355,-32.3423
sample,-0.378548,0.757838,-0.204789,-32.7461
sample,-0.503259,0.558351,-1.04521,-33.6821
sample,-0.503889,0.55396,-1.03031,-33.7653
sample,-0.392617,0.606277,-1.02732,-32.6136
sample,-0.483355,0.698104,-1.08451,-32.7848
sample,-0.319633,0.612657,-0.746013,-32.5945
sample,-0.297318,0.597853,-0.743975,-32.8327
sample,-0.354863,0.558175,-0.742413,-33.0722
sample,-0.088081,0.707154,-0.582798,-34.6965
sample,-0.551003,0.752798,-0.0710655,-33.4205
sample,-0.338439,0.77505,-0.144376,-32.9433
sample,-0.423971,0.683235,-0.556452,-32.3435
sample,-0.360724,0.633118,-0.235845,-32.301
sample,-0.392455,0.550457,-0.306906,-33.1059
sample,-0.374607,0.616775,-0.513426,-32.3547
sample,-0.378964,0.589817,0.833805,-33.2816
sample,-0.387756,0.688877,0.45158,-32.6618
sample,-0.42741,0.693129,-1.72652,-33.2322
sample,-0.363922,0.645806,-1.89192,-33.4493
sample,-0.391544,0.725095,-1.85643,-33.5803
sample,-0.470985,0.54859,-1.20543,-33.7271
sample,-0.360407,0.926126,-0.753551,-34.7467
sample,-0.338853,0.912243,-0.718452,-34.5777
sample,-0.549623,0.63511,-1.77631,-33.8914
sample,-0.315701,0.661425,0.505667,-32.7203
sample,-0.443365,0.66007,0.862888,-33.2068
sample,-0.437196,0.625831,0.842878,-33.2141
sample,-0.49242,0.616744,-0.200066,-32.7716
sample,-0.535667,0.819142,-0.452374,-33.7635
sample,-0.450138,0.894294,-0.460936,-34.307
sample,-0.479948,0.584655,-0.442525,-32.9351
sample,-0.157447,0.746631,2.04512,-36.2362
sample,-0.40084,0.751779,2.08408,-35.7966
sample,-0.154843,0.608518,1.70745,-35.908
sample,-0.154843,0.608518,1.70745,-35.908
sample,-0.375813,0.666186,1.57753,-34.1761
sample,-0.546167,0.869013,-0.665012,-34.3616
sample,-0.546201,0.866651,-0.587483,-34.3282
sample,-0.548865,0.760299,-0.604833,-33.3433
sample,-0.432002,0.668792,-0.595681,-32.3375
sample,-0.452843,0.649165,-0.739767,-32.434
sample,-0.463388,0.708865,0.403594,-32.929
sample,-0.249049,0.584105,0.245633,-33.3896
sample,-0.348689,0.819251,0.338745,-33.5905
sample,-0.327243,0.566231,0.494553,-33.2963
sample,-0.371506,0.638522,0.639137,-32.7807
sample,-0.541578,0.676108,0.652599,-33.667
sample,-0.475587,0.702133,0.675235,-33.24
sample,-0.475406,0.818919,0.664298,-34.1351
sample,-0.590145,0.635873,-0.702396,-33.594
sample,-0.540839,0.668164,-0.733469,-32.9681
sample,-0.218667,0.655265,-1.27778,-33.61
sample,-0.152215,0.627439,-1.27728,-34.6387
sample,-0.175819,0.659033,-1.23847,-34.0652
sample,-0.367841,0.656462,-1.31097,-32.7077
sample,-0.440152,0.60925,-1.57067,-33.1429
sample,-0.372765,0.617773,-1.63083,-33.1447
sample,-0.299898,0.711115,-1.67372,-33.5387
sample,-0.307669,0.710243,-1.69198,-33.5185
sample,-0.491652,0.69406,-1.65106,-33.3151
sample,-0.437103,0.539506,-0.318354,-33.4516
sample,-0.299854,0.774211,-1.0995,-33.3467
sample,-0.516695,0.572153,-1.07586,-33.5846
sample,-0.559158,0.607114,0.415193,-33.9166
sample,-0.223485,0.736241,-0.366828,-33.167
sample,-0.0478119,0.879468,-0.264709,-35.8957
sample,-0.243694,0.648032,0.909332,-33.503
sample,-0.22354,0.633691,0.895205,-33.7043
sample,-0.370941,0.683595,0.885021,-33.0882
sample,-0.275266,0.696844,0.57554,-33.0057
sample,-0.40592,0.681489,1.24866,-33.6749
sample,-0.433033,0.506518,1.28569,-35.8263
sample,-0.236392,0.596862,1.14503,-34.2003
sample,-0.372294,0.680425,-0.981851,-32.4763
sample,-0.385924,0.607375,0.379968,-32.6909
sample,-0.237764,0.721026,1.03733,-33.7945
sample,-0.193991,0.68944,1.02287,-34.0035
sample,-0.267564,0.913582,0.813895,-35.281
sample,-0.35199,0.819505,0.845136,-34.0725
sample,-0.0524899,0.689354,0.835034,-35.5949
sample,-0.0599638,0.701749,0.819472,-35.4126
sample,-0.115466,0.702695,0.800578,-34.6104
sample,-0.212264,0.625037,0.826463,-33.788
sample,-0.569089,0.846307,-1.46838,-34.6547
sample,-0.362619,0.814285,-1.71067,-34.2085
sample,-0.37857,0.641452,-1.0248,-32.4728
sample,-0.436071,0.563977,-1.05693,-33.1726
sample,-0.418598,0.594961,0.638341,-33.0968
sample,-0.502215,0.645382,-0.988278,-32.796
sample,-0.422341,0.595018,-0.486217,-32.5486
sample,-0.380403,0.776939,0.0820094,-33.0062
sample,-0.356716,0.616864,-0.385776,-32.3658
sample,-0.36025,0.71491,-0.504577,-32.4527
sample,-0.587948,0.873796,-0.542944,-34.6604
sample,-0.268003,0.544407,-0.193446,-33.7866
sample,-0.275784,0.523495,-0.200408,-34.2487
sample,-0.441051,0.472077,-0.191884,-35.8387
sample,-0.51884,0.464465,-0.220922,-37.1136
sample,-0.264282,0.751821,-0.713015,-33.1002
sample,-0.33732,0.678431,-0.697057,-32.4028
sample,-0.457963,0.639939,-0.690311,-32.4577
sample,-0.491026,0.708431,-0.650034,-32.6937
sample,-0.290249,0.682119,-0.297342,-32.5224
sample,-0.445397,0.708057,-0.297485,-32.4967
sample,-0.469327,0.795135,-0.558848,-33.2259
sample,-0.545516,0.72458,-0.384946,-33.1212
sample,-0.300576,0.56736,-0.414542,-33.0923
sample,-0.365478,0.559014,-0.378623,-32.9609
sample,-0.420064,0.744624,-0.609871,-32.6743
sample,-0.484595,0.61713,-0.443114,-32.6742
sample,-0.269275,0.64999,-0.113232,-32.6486
sample,-0.307154,0.653511,-1.2116,-32.8354
sample,-0.543874,0.60541,-1.60777,-33.863
sample,-0.293076,0.550528,-1.45725,-34.1254
sample,-0.406766,0.586029,-1.4264,-33.13
sample,-0.350817,0.740456,-0.79544,-32.7205
sample,-0.582379,0.698923,-0.66133,-33.3617
sample,-0.412291,0.592361,-0.601617,-32.5659
sample,-0.327704,0.637748,-0.613517,-32.4044
sample,-0.515804,0.786864,-0.914546,-33.429
sample,-0.230408,0.84532,-0.906376,-34.2729
sample,-0.908625,0.785924,-1.14764,-38.5934
sample,-0.90777,0.763272,-1.16974,-38.7078
sample,-0.883673,0.73099,-1.17505,-38.4212
sample,-0.796651,0.761004,-1.15219,-36.5054
sample,-0.441456,0.692411,-1.22232,-32.7201
sample,-0.374942,0.775777,-1.30061,-33.3269
sample,-0.353349,0.837458,-1.37938,-34.0892
sample,-0.355599,0.738048,-1.41854,-33.1696
sample,-0.244234,0.751219,0.136487,-33.1803
sample,-0.399872,0.490334,-1.30293,-35.2435
sample,-0.43611,0.528148,-1.30777,-34.1023
sample,-0.354905,0.610365,-1.30654,-32.867
sample,-0.389563,0.66578,-1.03112,-32.4654
sample,-0.51584,0.876771,-0.571438,-34.2997
sample,-0.533154,0.79833,-0.654593,-33.5552
sample,-0.308405,0.568011,-0.817676,-33.1598
sample,-0.528958,0.610457,-0.893666,-33.154
sample,-0.298269,0.700509,0.686139,-33.0279
sample,-0.145295,0.933705,0.710385,-35.9456
sample,-0.18166,0.955951,0.66811,-35.9892
sample,-0.522255,0.816067,0.681634,-34.3826
sample,-0.329056,0.759893,0.617359,-33.2621
sample,-0.446641,0.634411,0.5887,-32.9331
sample,-0.377256,0.657317,0.595594,-32.7233
sample,-0.342354,0.566486,0.299926,-33.1025
sample,-0.214581,0.685425,-0.883145,-33.2862
sample,-0.295962,0.593897,-0.872458,-32.9467
sample,-0.351929,0.615472,-2.08782,-33.9103
sample,-0.235611,0.661924,-2.10193,-34.6402
sample,-0.679225,0.895671,-1.82932,-36.2931
sample,-0.455711,0.995529,-1.93093,-36.7961
sample,-0.147628,0.576594,-1.70901,-36.0215
sample,-0.17504,0.586016,-1.69588,-35.3385
sample,-0.348643,0.525155,-1.78745,-34.7764
sample,-0.496909,0.868019,0.470065,-34.5845
sample,-0.197333,0.622617,-0.154666,-33.4357
sample,-0.408298,0.610145,-1.79707,-33.3797
sample,-0.391935,0.700397,-1.774,-33.3268
sample,-0.510033,0.72316,-1.78213,-33.6823
sample,-0.388007,0.683485,-1.89044,-33.4381
sample,-0.394403,0.724367,-1.20421,-32.8217
sample,-0.435131,0.636468,-1.48375,-32.91
sample,-0.479104,0.66827,-1.46836,-33.011
sample,-0.355661,0.578312,-0.921457,-32.8628
sample,-0.412244,0.730263,-0.33508,-32.5445
sample,-0.361261,0.59022,-0.566884,-32.5788
sample,-0.405384,0.693492,0.820314,-33.0918
sample,-0.419296,0.545426,0.750393,-33.937
sample,-0.44687,0.489316,0.747028,-35.7778
sample,-0.446572,0.484788,0.76575,-35.9899
sample,-0.256205,0.924182,0.585899,-35.2269
sample,-0.311539,0.51177,0.459353,-34.6015
sample,-0.18345,0.570376,0.486317,-34.5408
sample,-0.479713,0.635843,0.651433,-33.1954
sample,-0.469514,0.63016,0.653466,-33.149
sample,-0.270232,0.776363,-0.16709,-33.1667
sample,-0.304934,0.65712,-0.19602,-32.4332
sample,-0.24895,0.773843,0.528094,-33.5534
sample,-0.365161,0.600226,1.62676,-34.4585
sample,-0.506444,0.539396,1.61834,-36.2413
sample,-0.292488,0.753066,2.047,-35.6328
sample,-0.106877,0.638628,2.09435,-37.0588
sample,-0.129358,0.678385,2.11681,-36.581
sample,-0.410759,0.605285,2.28681,-36.101
sample,-0.228868,0.712966,1.63739,-34.7622
sample,-0.3351,0.657738,1.72488,-34.4527
sample,-0.373876,0.645509,-0.339854,-32.2562
sample,-0.372155,0.808734,-0.0489895,-33.2717
sample,-0.334479,0.789662,-0.0453541,-33.1117
sample,-0.295976,0.804826,-0.725466,-33.4194
sample,-0.339409,0.520014,-2.07422,-35.4273
sample,-0.536615,0.659748,-1.97749,-33.9765
sample,-0.455941,0.638791,-1.97655,-33.5981
sample,-0.599011,0.703996,-1.94367,-34.4619
sample,-0.585602,0.708074,-0.383274,-33.4271
sample,-0.398315,0.652639,0.196136,-32.4301
sample,-0.397698,0.619513,-0.144428,-32.3657
sample,-0.294878,0.574654,-0.987126,-33.259
sample,-0.509854,0.798941,-0.915305,-33.512
sample,-0.532531,0.767174,-2.76472,-35.8104
sample,-0.420548,0.59665,-2.70544,-35.1737
sample,-0.398871,0.726364,-2.64706,-35.0648
sample,-0.449555,0.576343,-1.63236,-33.569
sample,-0.31957,0.562474,-1.68395,-33.9987
sample,-0.466091,0.673059,-1.71041,-33.2407
sample,-0.502601,0.738826,-1.75799,-33.7086
sample,-0.45194,0.733537,-1.50607,-33.2193
sample,-0.453015,0.750943,-1.53563,-33.3781
sample,-0.447039,0.759995,-1.53452,-33.4381
sample,-0.399097,0.742795,-1.56004,-33.3026
sample,-0.36361,0.543832,-0.979498,-33.4416
sample,-0.380969,0.557779,-1.0535,-33.1995
sample,-0.613051,0.705093,-1.13845,-33.8418
sample,-0.317903,0.657209,-1.28377,-32.8476
sample,-0.365304,0.627398,-1.28878,-32.7402
sample,-0.418015,0.687388,-1.36133,-32.7884
sample,-0.327749,0.739503,-1.41935,-33.2646
sample,-0.475916,0.626285,-0.397982,-32.5727
sample,-0.387511,0.765154,0.173559,-32.9505
sample,-0.229104,0.724292,0.119748,-33.1146
sample,-0.390593,0.570264,0.122291,-32.9076
sample,-0.316224,0.569251,0.105689,-33.0539
sample,-0.517996,0.581398,-0.782981,-33.336
sample,-0.609487,0.653843,-1.59769,-34.2371
sample,-0.197699,0.633054,-1.42752,-34.1236
sample,-0.424138,0.640668,-1.35349,-32.7498
sample,-0.392428,0.832841,-0.679674,-33.5283
sample,-0.345154,0.713871,-0.727916,-32.5343
sample,-0.248991,0.763513,-0.707078,-33.2757
sample,-0.240429,0.742869,-0.660848,-33.1679
sample,-0.24392,0.721972,-0.660848,-33.0274
sample,-0.55403,0.628479,-0.441815,-33.2148
sample,-0.537262,0.579949,-0.513696,-33.5257
sample,-0.124137,0.667865,-0.445935,-34.1986
sample,-0.0152298,0.707046,-0.472574,-35.8884
sample,-0.041872,0.714492,-0.531159,-35.4093
sample,-0.0341853,0.694451,-0.473048,-35.5949
sample,-0.222403,0.884375,-0.0828351,-34.5357
sample,-0.492975,0.664306,0.105661,-32.7683
sample,-0.545757,0.770728,0.11959,-33.6153
sample,-0.578304,0.61009,0.0714382,-33.8605
sample,-0.646534,0.60102,0.0597128,-35.0806
sample,-0.540724,0.709873,0.0383189,-33.1784
sample,-0.340902,0.664628,0.0928517,-32.3982
sample,-0.258467,0.662858,0.0898345,-32.758
sample,-0.21674,0.757663,0.0153657,-33.3635
sample,-0.565223,0.55559,0.132679,-34.5813
sample,-0.321831,0.513142,0.106989,-34.2859
sample,-0.121539,0.595253,-0.14278,-34.918
sample,-0.6097,0.73364,-2.24583,-35.0942
sample,-0.226079,0.619973,-2.82312,-36.5473
sample,-0.413797,0.721896,-2.70146,-35.1439
sample,-0.468868,0.607114,-2.62965,-35.0135
sample,-0.415562,0.741623,-3.08305,-36.2314
sample,-0.350456,0.61587,-2.31414,-34.3377
sample,-0.371365,0.630817,-2.31416,-34.2025
sample,-0.317769,0.716321,-1.40397,-33.1417
sample,-0.563378,0.714053,-0.502932,-33.2162
sample,-0.374951,0.686587,0.60939,-32.7889
sample,-0.416682,0.602659,-0.126008,-32.5097
sample,-0.531586,0.649253,-0.159961,-32.9653
sample,-0.593305,0.643207,-0.18277,-33.6654
sample,-0.17056,0.720853,-0.584371,-33.6435
sample,-0.593377,0.641353,-0.231194,-33.6583
sample,-0.294689,0.748691,-0.817939,-32.9736
sample,-0.644389,0.636853,-1.12056,-34.4792
sample,-0.590284,0.751443,-1.09959,-33.7574
sample,-0.310148,0.718457,-0.938064,-32.7809
sample,-0.296292,0.745598,-0.183503,-32.811
sample,-0.314777,0.814684,-0.690208,-33.4434
sample,-0.267328,0.787376,-0.709679,-33.3726
sample,-0.287857,0.800643,-0.722315,-33.4086
sample,-0.322239,0.886333,-0.643021,-34.2485
sample,-0.313399,0.837022,-0.641616,-33.6759
sample,-0.421835,0.554203,-0.58342,-33.1033
sample,-0.460173,0.562593,-0.599792,-33.1303
sample,-0.218931,0.652542,-0.615039,-33.1256
sample,-0.232144,0.615953,-1.44047,-33.8438
sample,-0.504631,0.725076,-0.807598,-32.8845
sample,-0.382544,0.624087,-0.31891,-32.3097
sample,-0.229606,0.55271,0.700889,-34.4653
sample,-0.645321,0.652687,-0.195035,-34.3551
sample,-0.0979904,0.77984,-0.0975728,-34.6055
sample,-0.265553,0.722868,0.106713,-32.8784
sample,-0.412261,0.594429,1.20122,-33.8358
sample,-0.428806,0.57169,1.17989,-34.133
sample,-0.372287,0.572195,1.18463,-33.9719
sample,-0.358128,0.592532,1.1842,-33.7357
sample,-0.506391,0.638497,-0.00567732,-32.8493
sample,-0.55016,0.686493,-1.11444,-33.1995
sample,-0.485875,0.756798,-0.478566,-32.95
sample,-0.372341,0.701171,-0.513061,-32.3721
sample,-0.395532,0.798576,-0.487924,-33.1189
sample,-0.430894,0.707121,-1.76425,-33.3462
sample,-0.336238,0.643406,-1.56993,-33.0967
sample,-0.325164,0.610297,-0.293396,-32.4942
sample,-0.29276,0.638203,-0.327081,-32.5195
sample,-0.462013,0.638687,0.105505,-32.6114
sample,-0.424382,0.698989,-0.68155,-32.4254
sample,-0.313159,0.696536,-0.195441,-32.4732
sample,-0.15675,0.667178,0.131965,-33.7448
sample,-0.292546,0.682186,0.23881,-32.6521
sample,-0.557431,0.980034,0.446187,-36.3009
sample,-0.132956,0.531313,0.0386282,-36.3136
sample,-0.166181,0.546723,0.031247,-35.1714
sample,-0.180497,0.55959,0.0395646,-34.6115
sample,-0.530775,0.535893,0.00353849,-34.4861
sample,-0.638947,0.548528,-0.00101368,-36.0432
sample,-0.443122,0.591935,0.0351252,-32.7611
sample,-0.501057,0.659908,-0.758288,-32.6786
sample,-0.495007,0.662871,-0.262459,-32.6293
sample,-0.542148,0.699518,-2.39623,-34.7386
sample,-0.450272,0.717111,-0.953463,-32.6785
sample,-0.376503,0.663,-0.950768,-32.4214
sample,-0.538049,0.577371,-0.762596,-33.6005
sample,-0.673799,0.589454,-0.795901,-35.5812
sample,-0.575589,0.616006,-0.787164,-33.5819
sample,-0.517275,0.595618,-0.791256,-33.1559
sample,-0.323457,0.766675,-0.342576,-32.8842
sample,-0.490752,0.876702,-0.743403,-34.2329
sample,-0.665211,0.648399,-0.938796,-34.6454
sample,-0.65089,0.636448,-0.951838,-34.5187
sample,-0.443994,0.900614,-0.760993,-34.4284
sample,-0.443686,0.921497,-0.811385,-34.7199
sample,-0.403256,0.900086,-0.684546,-34.3603
sample,-0.351462,0.919279,-0.686856,-34.6406
sample,-0.199972,0.765202,0.2263,-33.6057
sample,-0.528492,0.596738,0.112346,-33.418
sample,-0.487887,0.686077,0.125977,-32.7748
sample,-0.296035,0.620484,-0.156198,-32.5829
sample,-0.558657,0.680042,-0.372716,-33.1252
sample,-0.573801,0.619277,-0.259399,-33.5546
sample,-0.631147,0.606843,-0.254411,-34.5479
sample,-0.623346,0.599904,-0.280428,-34.5036
sample,-0.63404,0.685898,-0.31047,-34.0146
sample,-0.509016,0.726577,-0.292159,-32.8929
sample,-0.482327,0.691328,-0.284257,-32.5908
sample,-0.347631,0.680723,-0.329492,-32.3189
sample,0.173318,0.786227,1.18092,-39.779
sample,-0.425804,0.706349,1.0222,-33.48
sample,-0.383818,0.679079,-0.940109,-32.4377
sample,-0.526209,0.595703,-1.32432,-33.5285
sample,-0.600512,0.587126,-1.33577,-34.5512
sample,-0.596433,0.568107,-1.35028,-34.8492
sample,-0.203759,0.742682,-1.55535,-34.2706
sample,-0.328831,0.693711,-1.53018,-33.1381
sample,-0.460081,0.792027,0.225779,-33.3959
sample,-0.108034,0.869993,0.47635,-35.3562
sample,-0.548188,0.53543,0.810675,-35.5187
sample,-0.319743,0.750157,1.21275,-33.9407
sample,-0.293693,0.764822,1.0612,-33.8869
sample,-0.307486,0.67177,0.114804,-32.513
sample,-0.643224,0.661133,-1.54856,-34.5953
sample,-0.24002,0.576547,-1.47354,-34.2402
sample,-0.497855,0.710636,-1.3683,-33.1144
sample,-0.425901,0.695616,-0.0119966,-32.465
sample,-0.339383,0.622941,-0.423579,-32.38
sample,-0.223327,0.631561,-0.396532,-33.1038
sample,-0.366133,0.531645,-0.527489,-33.5324
sample,-0.567844,0.825883,-0.385397,-34.0424
sample,-0.398887,0.766204,-0.331867,-32.8095
sample,-0.479227,0.622389,-0.265521,-32.6312
sample,-0.338932,0.65578,-2.01939,-33.7381
sample,-0.366996,0.726178,-2.28764,-34.3731
sample,-0.457398,0.746666,-2.66852,-35.2426
sample,-0.258753,0.687229,-2.61694,-35.532
sample,-0.507182,0.732286,-2.28798,-34.5028
sample,-0.438897,0.578074,-2.19041,-34.3436
sample,-0.480242,0.58822,-2.14628,-34.305
sample,-0.552124,0.527511,-2.18399,-36.2357
sample,-0.409349,0.600651,-2.21783,-34.1287
sample,-0.357848,0.713622,-2.29834,-34.3465
sample,-0.278816,0.716365,-2.42666,-35.0409
sample,-0.485756,0.680119,-0.248118,-32.5905
sample,-0.526152,0.693575,-0.251913,-32.8898
sample,-0.25136,0.629906,-0.857083,-33.0259
sample,-0.20064,0.618134,-0.873604,-33.6621
sample,-0.516375,0.671444,-0.11623,-32.8291
sample,-0.360141,0.794151,-0.146006,-33.1
sample,-0.378356,0.802001,0.540349,-33.5702
sample,-0.144892,0.713386,0.82163,-34.2917
sample,-0.230615,0.719563,0.895617,-33.6593
sample,-0.253975,0.663417,0.939768,-33.4466
sample,-0.232874,0.832836,1.41775,-35.2665
sample,-0.483233,0.57537,0.618996,-33.6883
sample,-0.670636,0.633516,-1.18871,-34.9787
sample,-0.591266,0.877226,-1.20921,-34.9162
sample,-0.165693,0.554725,0.399137,-35.1135
sample,-0.207444,0.535275,0.376649,-34.9462
sample,-0.273109,0.716438,0.484296,-33.0226
sample,-0.289024,0.756135,0.546124,-33.2627
sample,-0.445601,0.666961,0.475595,-32.7875
sample,-0.320204,0.653477,-0.401735,-32.3695
sample,-0.150445,0.653753,-0.498254,-33.9015
sample,-0.428843,0.606444,-0.288916,-32.4821
sample,-0.49216,0.556946,-0.311254,-33.4714
sample,-0.412542,0.56843,-0.280106,-32.8414
sample,-0.376694,0.852657,-1.20709,-34.0691
sample,-0.564533,0.739269,-1.26105,-33.5826
sample,-0.278388,0.607758,-0.52991,-32.8034
sample,-0.53585,0.692749,0.18346,-33.1832
sample,-0.189191,0.672666,0.0802665,-33.3469
sample,-0.407695,0.783016,-0.182813,-32.9935
sample,-0.444313,0.731844,0.674122,-33.2459
sample,-0.441865,0.662865,0.681088,-32.979
sample,-0.400748,0.585452,0.686336,-33.1905
sample,-0.242055,0.511106,0.685399,-35.4689
sample,-0.528454,0.653233,-1.32316,-33.1844
sample,-0.262689,0.668401,-0.584412,-32.7208
sample,-0.160099,0.605229,-0.504011,-34.1799
sample,-0.264379,0.592318,-1.8785,-34.3466
sample,-0.233787,0.735679,-1.93745,-34.5495
sample,-0.466754,0.607951,-2.84683,-35.4992
sample,-0.359428,0.73951,1.0691,-33.6265
sample,-0.337481,0.597827,1.1209,-33.6136
sample,-0.392864,0.674809,0.217506,-32.4572
sample,-0.294334,0.639744,-0.218407,-32.5085
sample,-0.520557,0.613932,-0.226028,-33.02
sample,-0.214721,0.6156,0.0215707,-33.3182
sample,-0.215948,0.619701,0.00682788,-33.2685
sample,-0.209795,0.627294,0.0238106,-33.2842
sample,-0.151975,0.581442,0.163865,-34.669
sample,-0.625611,0.674199,0.199588,-34.2155
sample,-0.0352247,0.80821,0.701977,-35.811
sample,-0.0372107,0.758384,0.683188,-35.6076
sample,-0.515663,0.63351,0.911747,-33.8396
sample,-0.538055,0.806768,-1.22531,-33.8967
sample,-0.411679,0.763174,-1.18058,-33.0948
sample,-0.283591,0.785094,0.838769,-33.8136
sample,-0.150929,0.795237,0.84222,-34.6456
sample,-0.507627,0.840447,0.742015,-34.6262
sample,-0.442357,0.727521,0.771293,-33.3244
sample,-0.416943,0.721003,0.709111,-33.1259
sample,-0.341803,0.815529,0.692977,-33.861
sample,-0.418631,0.561611,0.153186,-33.1157
sample,-0.491123,0.501518,0.332436,-35.3057
sample,-0.481812,0.490906,0.229968,-35.5426
sample,-0.268446,0.989738,-0.511326,-35.7421
sample,-0.222075,0.787542,-0.29414,-33.5305
sample,-0.440432,0.627258,-0.85408,-32.486
sample,-0.379644,0.581615,-0.696795,-32.683
sample,-0.276727,0.681527,-0.598121,-32.6472
sample,-0.469874,0.74391,-0.962065,-32.9125
sample,-0.372315,0.813664,-0.949095,-33.4431
sample,-0.284025,0.796901,0.221107,-33.4175
sample,-0.346405,0.719277,0.202213,-32.6372
sample,-0.349388,0.582655,0.390206,-32.9356
sample,-0.353242,0.572349,0.518076,-33.1622
sample,-0.362737,0.710818,-0.105432,-32.4492
sample,-0.367878,0.662691,-0.0729771,-32.3008
sample,-0.359231,0.695454,0.209949,-32.5108
sample,-0.409734,0.507802,-0.170577,-34.2419
sample,-0.540298,0.500906,-0.306383,-35.663
sample,-0.590406,0.634316,-0.202472,-33.6743
sample,-0.462685,0.684523,-0.2419,-32.4844
sample,-0.45318,0.614098,-0.271433,-32.5317
sample,-0.458125,0.611002,-1.74478,-33.4016
sample,-0.648832,0.820634,-1.88839,-35.436
sample,-0.41857,0.623927,-1.89344,-33.4525
sample,-0.381936,0.637255,-1.63677,-33.067
sample,-0.524875,0.674213,-0.270728,-32.847
sample,-0.418015,0.62139,-1.25333,-32.7134
sample,-0.346214,0.649842,-2.21229,-34.0562
sample,-0.396602,0.712568,-1.47345,-33.0094
sample,-0.296877,0.679403,-1.51884,-33.2424
sample,-0.483712,0.575954,-1.61939,-33.7325
sample,-0.244034,0.790367,-2.49157,-35.9764
sample,-0.269099,0.754925,-0.595873,-33.0499
sample,-0.288073,0.68562,-0.559115,-32.5794
sample,-0.359437,0.682847,0.33376,-32.5456
sample,-0.377995,0.629925,0.870742,-33.0705
sample,-0.353267,0.682414,1.03462,-33.2812
sample,-0.316147,0.677526,1.06151,-33.354
sample,-0.314009,0.675642,1.06895,-33.3658
sample,-0.366458,0.637717,1.12255,-33.3892
sample,-0.317653,0.718515,1.16577,-33.6614
sample,-0.349705,0.607966,1.18446,-33.6161
sample,-0.324052,0.80916,1.16005,-34.3977
sample,-0.239294,0.58091,1.26616,-34.5528
sample,-0.283045,0.573397,1.28587,-34.3568
sample,-0.43851,0.648625,1.0204,-33.4075
sample,-0.510517,0.617844,-0.374145,-32.8711
sample,-0.427705,0.836282,-0.433346,-33.5583
sample,-0.367943,0.804633,-0.47285,-33.185
sample,-0.386802,0.779439,-0.288134,-32.9279
sample,-0.408917,0.822036,-0.212728,-33.3926
sample,-0.369408,0.921714,-0.258523,-34.6087
sample,-0.415584,0.96405,-0.0675229,-35.2538
sample,-0.542262,0.8889,-0.207149,-34.621
sample,-0.169724,0.763724,-0.324981,-33.7751
sample,-0.530914,0.577481,-0.295392,-33.5182
sample,-0.522366,0.534115,-0.2929,-34.3127
sample,-0.386292,0.45593,-0.312301,-36.492
sample,-0.309204,0.580993,-0.0277355,-32.8826
sample,-0.324453,0.675467,0.0189482,-32.4254
sample,-0.545502,0.647282,0.847999,-34.0048
sample,-0.283645,0.638726,-0.326884,-32.5718
sample,-0.299179,0.669718,-1.4916,-33.1808
sample,-0.237111,0.607904,-1.47374,-33.8969
sample,-0.410046,0.767379,-1.46394,-33.3931
sample,-0.392858,0.574136,-1.00354,-32.9164
sample,-0.377218,0.738816,-1.09159,-32.8439
sample,-0.346172,0.717203,-0.810705,-32.5862
sample,-0.415707,0.55261,-0.102858,-33.1492
sample,-0.436944,0.552528,-1.24791,-33.5124
sample,-0.343491,0.67534,-0.0270374,-32.3642
sample,-0.331597,0.607769,-0.0772307,-32.5188
sample,-0.407655,0.672484,1.1712,-33.5328
sample,-0.457927,0.740624,1.21554,-34.1278
sample,-0.270023,0.597211,0.700975,-33.4016
sample,-0.287308,0.652652,0.707206,-33.0175
sample,-0.41138,0.555669,-0.570325,-33.0488
sample,-0.421293,0.553169,-0.551437,-33.1158
sample,-0.333055,0.584083,0.228573,-32.8541
sample,-0.496735,0.639969,0.284597,-32.9552
sample,-0.440352,0.662252,0.299488,-32.6149
sample,-0.479479,0.570848,-1.04949,-33.2852
sample,-0.190781,0.713584,-1.11725,-33.7704
sample,-0.100762,0.722696,-1.12247,-34.9193
sample,-0.105859,0.741171,-1.10114,-34.8585
sample,-0.185552,0.709986,-1.10079,-33.8005
sample,-0.641022,0.660392,-0.884087,-34.178
sample,-0.218043,0.870463,-0.951657,-34.6611
sample,-0.219732,0.894289,-0.827941,-34.8463
sample,-0.105933,0.774126,-1.02939,-34.9155
sample,-0.285462,0.657641,-0.977376,-32.771
sample,-0.450558,0.663713,-1.63305,-33.0901
sample,-0.316694,0.671753,-0.95231,-32.5938
sample,-0.252954,0.645029,-1.29188,-33.3154
sample,-0.25215,0.736818,-0.358569,-32.9728
sample,-0.576793,0.674437,-0.593605,-33.2929
sample,-0.148088,0.658914,0.105549,-33.8797
sample,-0.24771,0.828825,0.115372,-33.8407
sample,-0.209239,0.812052,-1.61384,-34.8298
sample,-0.437309,0.64114,-1.71313,-33.1742
sample,-0.614941,0.648076,-1.5904,-34.328
sample,-0.176059,0.651169,-1.29768,-34.1577
sample,-0.296285,0.687883,-1.35246,-33.0742
sample,-0.50046,0.60904,-1.62035,-33.4847
sample,-0.589534,0.565563,-1.52799,-34.9486
sample,-0.123358,0.871772,-2.37078,-37.6203
sample,-0.158807,0.835667,-2.40325,-36.9703
sample,-0.247348,0.848023,-2.29511,-36.1079
sample,-0.208741,0.899164,-0.748964,-34.9231
sample,-0.146205,0.953452,-0.734056,-35.9841
sample,-0.181589,1.00517,-0.782536,-36.4511
sample,-0.351881,0.815326,-0.731031,-33.3815
sample,-0.443455,0.698151,-0.945964,-32.5662
sample,-0.424823,0.727382,-0.422002,-32.5437
sample,-0.370454,0.764977,0.758654,-33.4353
sample,-0.309632,0.740328,0.785258,-33.3208
sample,-0.596606,0.670521,0.835732,-34.5484
sample,-0.365174,0.567774,0.909501,-33.6399
sample,-0.371957,0.730699,1.23745,-33.8312
sample,-0.341698,0.719468,2.68709,-37.1202
sample,-0.356701,0.681893,2.63105,-36.8045
sample,-0.384981,0.589555,2.60308,-37.0433
sample,-0.388638,0.581702,2.60749,-37.1525
sample,-0.208391,0.710266,2.6311,-37.2314
sample,-0.432754,0.702186,2.72813,-37.4565
sample,-0.426828,0.663822,1.65448,-34.4835
sample,-0.314983,0.679238,1.66478,-34.3812
sample,-0.248265,0.691391,1.2134,-33.8734
sample,-0.279714,0.747785,1.24885,-34.0676
sample,-0.143938,0.646192,2.1437,-36.614
sample,-0.232575,0.609067,2.07421,-35.839
sample,-0.384837,0.703086,1.95378,-35.1205
sample,-0.396201,0.662626,1.94205,-35.0073
sample,-0.315399,0.603922,1.74905,-34.7279
sample,-0.242788,0.700016,1.4806,-34.356
sample,-0.280578,0.672549,1.51219,-34.1771
sample,-0.178619,0.66519,1.55175,-34.9515
sample,-0.458154,0.694908,1.53402,-34.4702
sample,-0.341284,0.803488,1.34026,-34.6195
sample,-0.255795,0.656363,1.32748,-33.9847
sample,-0.451644,0.70694,1.95681,-35.42
sample,-0.479606,0.690349,2.19376,-36.152
sample,-0.416029,0.772745,2.1405,-36.1733
sample,-0.393522,0.719066,2.13841,-35.6823
sample,-0.481063,0.750236,2.10614,-36.2477
sample,-0.630312,0.835673,2.06931,-38.2693
sample,-0.0748316,0.649964,1.78684,-36.8224
sample,-0.271601,0.72558,1.79591,-34.9442
sample,-0.330513,0.687521,1.8068,-34.6794
sample,-0.307339,0.660749,-0.444686,-32.4265
sample,-0.431697,0.709147,-0.528379,-32.4594
sample,-0.345261,0.706687,-0.831386,-32.5427
sample,-0.347703,0.691426,-1.1269,-32.6615
sample,-0.353836,0.511818,-1.09493,-34.3761
sample,-0.381159,0.891242,-0.414836,-34.1992
sample,-0.447082,0.879175,-0.405241,-34.1099
sample,-0.265938,0.538252,-0.126338,-33.9593
sample,-0.0874768,0.57348,-0.159251,-36.0709
sample,-0.078654,0.549394,-0.126425,-36.9768
sample,-0.0858342,0.630531,-0.137139,-35.0772
sample,-0.231463,0.739587,-0.1898,-33.1188
sample,-0.400859,0.647822,-0.813657,-32.347
sample,-0.497789,0.69955,-0.85594,-32.7499
sample,-0.391592,0.655827,-0.866324,-32.365
sample,-0.402723,0.639989,-0.869757,-32.3842
sample,-0.549617,0.869717,-0.970794,-34.4725
sample,-0.0918283,0.665656,-0.392038,-34.7042
sample,-0.220961,0.658529,-2.088,-34.7771
sample,-0.202661,0.773778,-2.04439,-35.2723
sample,-0.570381,0.732724,-1.84353,-34.1769
sample,-0.444398,0.786241,-1.8422,-34.056
sample,-0.29478,0.679678,-1.83744,-33.7017
sample,-0.332531,0.654215,-1.84401,-33.4832
sample,-0.36222,0.622892,-1.85233,-33.4548
sample,-0.39258,0.715575,-1.00547,-32.626
sample,-0.39743,0.813488,-0.84171,-33.3736
sample,-0.285211,0.825419,-0.188053,-33.5825
sample,-0.34658,0.493968,-0.0899946,-34.7753
sample,-0.328433,0.587232,-0.112804,-32.7025
sample,-0.413134,0.686938,-0.628165,-32.3495
sample,-0.433253,0.559641,-1.53001,-33.6471
sample,-0.478611,0.685452,-1.40435,-32.9744
sample,-0.509283,0.672254,-0.85733,-32.763
sample,-0.534335,0.726497,-1.49166,-33.5034
sample,-0.132823,0.785475,0.231655,-34.3232
sample,-0.176291,0.726639,-1.26649,-34.1203
sample,-0.135589,0.706425,-1.31888,-34.6349
sample,-0.172568,0.739721,-1.99392,-35.2867
sample,-0.155438,0.820478,-0.874645,-34.5753
sample,-0.0809044,0.809032,-0.825748,-35.2532
sample,-0.468277,0.639635,0.0255107,-32.6009
sample,-0.251842,0.774537,-0.701869,-33.3435
sample,-0.281214,0.749771,-0.637348,-32.9642
sample,-0.279127,0.747217,-0.663276,-32.9661
sample,-0.201123,0.743702,-0.375639,-33.3881
sample,-0.254003,0.755069,-0.387644,-33.0864
sample,-0.480165,0.689597,-0.989222,-32.6892
sample,-0.541222,0.683364,0.354663,-33.3555
sample,-0.294735,0.734308,0.315112,-32.9201
sample,-0.464839,0.612145,-2.38474,-34.4576
sample,-0.744387,0.764333,-2.51992,-37.1759
sample,-0.722147,0.833876,-2.72485,-37.5962
sample,-0.223446,0.631608,-2.02001,-34.7212
sample,-0.559456,0.714537,-1.03923,-33.3012
sample,-0.472288,0.596235,-1.06476,-32.9387
sample,-0.455876,0.611865,-1.07207,-32.7373
sample,-0.427952,0.661368,-0.204634,-32.3298
sample,-0.325419,0.627446,0.0707928,-32.4811
sample,-0.25747,0.623619,-0.993079,-33.0978
sample,-0.3763,0.638146,-0.987456,-32.4575
sample,-0.411567,0.651836,-1.29428,-32.6681
sample,-0.323154,0.731237,-1.25558,-33.0574
sample,-0.612989,0.706718,-1.1086,-33.8275
sample,-0.587307,0.641263,-1.0834,-33.6458
sample,-0.384048,0.65802,0.949147,-33.1405
sample,-0.518916,0.678512,0.98212,-33.9041
sample,-0.613734,0.706183,1.10452,-35.1887
sample,-0.642852,0.719288,1.1041,-35.6059
sample,-0.656667,0.698415,1.21421,-36.0107
sample,-0.169226,0.75597,1.9272,-35.9384
sample,-0.121055,0.759099,1.92017,-36.3406
sample,-0.153386,0.736946,1.8443,-35.8031
sample,-0.164547,0.762078,1.10239,-34.6096
sample,-0.325847,0.830824,0.0446295,-33.5898
sample,-0.354382,0.712287,-1.27866,-32.8698
sample,-0.366565,0.918562,0.492072,-34.9311
sample,-0.574769,0.635108,0.125615,-33.6463
sample,-0.497368,0.602447,-1.68096,-33.5908
sample,-0.408311,0.881733,-1.38818,-34.5754
sample,-0.500263,0.633038,-1.49188,-33.2024
sample,-0.270998,0.590791,-0.817182,-33.1407
sample,-0.27191,0.72387,-1.18009,-33.1989
sample,-0.463626,0.58533,-0.899672,-32.9197
sample,-0.452954,0.570054,1.02279,-34.0553
sample,-0.327982,0.54418,1.02239,-34.2713
sample,-0.352017,0.558159,1.08547,-34.0407
sample,-0.479653,0.521103,1.19243,-35.6068
sample,-0.409783,0.515258,1.16541,-35.2267
sample,-0.312604,0.792902,0.486989,-33.475
sample,-0.244255,0.564992,0.407374,-33.8272
sample,-0.481513,0.868777,-1.63059,-34.7449
sample,-0.219811,0.539531,0.539375,-34.7663
sample,-0.162759,0.55259,0.610551,-35.3603
sample,-0.396553,0.640142,0.56874,-32.7326
sample,-0.27109,0.689595,0.607102,-33.0322
sample,-0.159017,0.589784,0.605657,-34.6524
sample,-0.325247,0.591372,0.695321,-33.1725
sample,-0.324892,0.574924,0.741014,-33.4137
sample,-0.38744,0.655392,0.834531,-32.9973
sample,-0.41359,0.605982,-0.499672,-32.4414
sample,-0.265313,0.682301,-0.635502,-32.7349
sample,-0.271442,0.805282,0.0417731,-33.4728
sample,-0.212988,0.712547,0.0498122,-33.1674
sample,-0.508038,0.621239,-0.349398,-32.8323
sample,-0.258096,0.722169,-0.565793,-32.8979
sample,-0.495777,0.602993,-0.332796,-32.8725
sample,-0.495777,0.602993,-0.332796,-32.8725
sample,-0.723353,0.917498,-0.381674,-36.3136
sample,-0.511526,0.63653,-0.253807,-32.8043
sample,-0.420669,0.661135,-0.287891,-32.2969
sample,-0.376413,0.640125,-0.261708,-32.2687
sample,-0.465163,0.667615,-0.245984,-32.4656
sample,-0.609096,0.719857,-0.239586,-33.7488
sample,-0.59127,0.772761,0.471555,-34.3272
sample,-0.554022,0.791459,-1.45225,-34.0311
sample,-0.287596,0.60308,-1.3096,-33.2763
sample,-0.300387,0.551989,-0.248015,-33.3573
sample,-0.440545,0.69002,0.251179,-32.6362
sample,-0.441516,0.606729,-0.83093,-32.5935
sample,-0.218473,0.814626,0.728771,-34.2465
sample,-0.276179,0.681055,0.723768,-33.0986
sample,-0.346471,0.688753,-0.593343,-32.3767
sample,-0.444743,0.673601,-1.79418,-33.2951
sample,-0.226862,0.804195,-1.70702,-34.7554
sample,-0.438029,0.692673,-1.69579,-33.2042
sample,-0.403153,0.747533,-0.507125,-32.6622
sample,-0.253538,0.734541,1.07612,-33.8344
sample,-0.423612,0.934656,1.03934,-35.8724
sample,-0.555232,0.88905,1.1643,-36.1194
sample,-0.302379,0.640855,1.25926,-33.6881
sample,-0.376405,0.701591,0.720486,-32.9651
sample,-0.578112,0.797092,0.825034,-34.8262
sample,-0.388152,0.543292,-1.17378,-33.5574
sample,-0.426658,0.798185,-1.7994,-34.1015
sample,-0.45407,0.790113,-1.81776,-34.071
sample,-0.510307,0.596112,-0.292315,-33.0703
sample,-0.476487,0.800773,-1.00447,-33.4453
sample,-0.306436,0.523096,0.467673,-34.2984
sample,-0.350251,0.819021,0.409498,-33.6386
sample,-0.464929,0.788199,0.483892,-33.5903
sample,-0.381645,0.722777,0.429876,-32.8042
sample,-0.567462,0.688976,0.512167,-33.7807
sample,-0.547172,0.732695,0.487864,-33.6967
sample,-0.284684,0.563202,0.325704,-33.453
sample,-0.483934,0.727524,-0.116749,-32.8082
sample,-0.490922,0.564182,-0.167977,-33.3664
sample,-0.230608,0.675269,-0.121053,-32.919
sample,-0.506474,0.663977,0.379447,-33.071
sample,-0.317313,0.630907,0.352113,-32.6464
sample,-0.489002,0.764821,0.464519,-33.4818
sample,-0.507346,0.744094,-0.519201,-32.9667
sample,-0.395737,0.670717,-0.604054,-32.288
sample,-0.374979,0.64066,-0.00353779,-32.3305
sample,-0.373986,0.629722,0.00828359,-32.3626
sample,-0.316896,0.624502,1.19361,-33.5971
sample,-0.55784,0.708171,1.40699,-35.0865
sample,-0.347122,0.670039,1.4651,-33.9499
sample,-0.38427,0.684204,-0.700333,-32.3453
sample,-0.456756,0.663459,-0.705746,-32.4354
sample,-0.290217,0.667735,-0.132392,-32.514
sample,-0.575093,0.666858,-0.0752519,-33.408
sample,-0.399382,0.614211,-0.147259,-32.3946
sample,-0.381329,0.602439,-1.192,-32.768
sample,-0.566273,0.706539,-1.25337,-33.4607
sample,-0.484732,0.720547,-1.22642,-32.9881
sample,-0.489085,0.665667,-1.24423,-32.8587
sample,-0.383795,0.640584,-2.00244,-33.5898
sample,-0.452483,0.651452,-1.96575,-33.551
sample,-0.476642,0.568436,-1.93569,-34.217
sample,-0.499331,0.578207,-0.909939,-33.2575
sample,-0.483606,0.58215,-0.885569,-33.0755
sample,-0.257382,0.631421,-0.93346,-33.0154
sample,-0.536909,0.694277,-1.49065,-33.4021
sample,-0.568334,0.911132,-1.50473,-35.4205
sample,-0.664921,0.845946,-1.51005,-35.385
sample,-0.52605,0.568241,-1.735,-34.3323
sample,-0.417831,0.594397,-1.70021,-33.3764
sample,-0.377242,0.692784,-2.01,-33.6771
sample,-0.490745,0.613847,-1.98318,-33.8698
sample,-0.569804,0.732576,-1.90028,-34.2469
sample,-0.177852,0.64179,-2.265,-35.749
sample,-0.271183,0.642255,-2.26197,-34.6487
sample,-0.205762,0.733632,-1.22353,-33.8069
sample,-0.399144,0.761157,-1.01163,-32.956
sample,-0.177293,0.692767,2.35902,-36.6781
sample,-0.388179,0.687269,2.3936,-36.2015
sample,-0.410819,0.657474,2.42307,-36.3135
sample,-0.349815,0.599389,2.50453,-36.6017
sample,-0.435229,0.616538,-0.550959,-32.4373
sample,-0.385484,0.608574,0.032103,-32.4761
sample,-0.162648,0.776209,0.260263,-33.9968
sample,-0.585499,0.56646,-0.226284,-34.4784
sample,-0.564779,0.968195,-1.87409,-36.5493
sample,-0.613594,0.799263,-1.7308,-34.7902
sample,-0.496923,0.791725,-1.67532,-34.0053
sample,-0.480998,0.716671,-1.66487,-33.3822
sample,-0.269994,0.698567,0.206616,-32.7917
sample,-0.44539,0.612784,-1.37098,-32.927
sample,-0.298824,0.836925,-1.29561,-34.1647
sample,-0.39705,0.876268,-1.31129,-34.4363
sample,-0.38155,0.833765,-1.31415,-33.9377
sample,-0.200354,0.766105,0.0935476,-33.5611
sample,-0.120977,0.688346,-0.00452351,-34.1357
sample,-0.0590914,0.715277,-0.0398122,-35.006
sample,-0.0881047,0.674,-0.100529,-34.6731
sample,-0.5733,0.579742,-0.434799,-33.9973
sample,-0.510952,0.519483,-0.411516,-34.5788
sample,-0.472474,0.549099,-0.391338,-33.4545
sample,-0.397788,0.620356,-0.394718,-32.3305
sample,-0.313969,0.625142,0.0961325,-32.5431
sample,-0.239083,0.707074,0.140073,-32.9815
sample,-0.144623,0.684917,0.324538,-33.9303
sample,-0.150012,0.816065,0.39295,-34.4701
sample,-0.0337167,0.74419,0.639726,-35.6169
sample,-0.226993,0.691888,0.653481,-33.351
sample,-0.508981,0.652918,1.0118,-33.8679
sample,-0.232093,0.702666,-1.17748,-33.4012
sample,-0.630223,0.713943,-0.227447,-33.9923
sample,-0.267047,0.651854,-0.533134,-32.6853
sample,-0.291455,0.68008,-0.547337,-32.5459
sample,-0.329599,0.6285,-0.579046,-32.4164
sample,-0.167532,0.743831,-0.571448,-33.7589
sample,-0.318957,0.573357,0.114059,-32.9858
sample,-0.448846,0.712852,-0.422681,-32.5213
sample,-0.407513,0.667342,-1.16275,-32.5631
sample,-0.351948,0.555139,-0.365866,-33.0551
sample,-0.434047,0.582829,0.679155,-33.3305
sample,-0.193608,0.716448,0.819775,-33.8341
mean,-0.380439,0.686387,-0.393421,-32.3009
