estimate,mu,sigma,logp
data,0.83132,0.511844,-28.4003
guess,-1.01137,1.30038,-66.2475
map,0.831233,0.511913,-28.4003
sample,0.886772,0.402379,-30.6474
sample,0.886772,0.402379,-30.6474
sample,0.739737,0.687406,-31.5403
sample,0.921752,0.625731,-30.6605
sample,0.630971,0.463534,-31.2405
sample,0.635658,0.58849,-30.8061
sample,1.04676,0.533196,-31.1117
sample,1.05412,0.632706,-30.9836
sample,0.985467,0.466626,-30.0654
sample,0.938143,0.436492,-29.9257
sample,0.919185,0.435106,-30.7218
sample,0.901307,0.45035,-30.5391
sample,0.794036,0.409922,-31.3302
sample,0.794036,0.409922,-31.3302
sample,0.794036,0.409922,-31.3302
sample,0.976716,0.447323,-31.6062
sample,0.6437,0.584336,-31.5274
sample,0.885139,0.670106,-31.4481
sample,0.849827,0.642523,-30.9702
sample,0.9196,0.686796,-31.8391
sample,0.704305,0.611296,-30.7056
sample,0.756988,0.467028,-29.9932
sample,0.911138,0.514821,-29.9003
sample,0.911138,0.514821,-29.9003
sample,0.748965,0.568915,-30.1224
sample,0.840391,0.535624,-29.5766
sample,0.840391,0.535624,-29.5766
sample,0.856738,0.544441,-29.6639
sample,0.857074,0.561734,-28.9105
sample,0.818255,0.477647,-28.8182
sample,0.818255,0.477647,-28.8182
sample,0.856748,0.442484,-29.0336
sample,0.856748,0.442484,-29.0336
sample,0.762175,0.478179,-28.9479
sample,0.958164,0.435706,-30.352
sample,0.854798,0.429825,-29.469
sample,0.801907,0.513653,-28.7718
sample,0.818253,0.413037,-30.1136
sample,0.951487,0.698206,-30.9784
sample,1.02144,0.689315,-31.4106
sample,0.585285,0.477937,-32.069
sample,0.751859,0.454812,-29.3959
sample,0.751859,0.454812,-29.3959
sample,0.892853,0.549393,-28.9061
sample,0.992409,0.591279,-30.0354
sample,0.73206,0.528763,-29.1037
sample,0.738765,0.506076,-29.0628
sample,0.926715,0.518874,-29.0741
sample,0.763228,0.485823,-28.9696
sample,0.863272,0.52693,-28.4816
sample,0.952662,0.559339,-29.1897
sample,0.980704,0.549394,-30.3619
sample,0.693891,0.526929,-30.2871
sample,0.879074,0.459211,-29.8672
sample,0.915059,0.566215,-30.2784
sample,0.894158,0.537532,-30.2635
sample,0.76875,0.432244,-30.988
sample,0.76875,0.432244,-30.988
sample,0.785827,0.453258,-30.4421
sample,0.857702,0.600977,-30.5785
sample,0.830391,0.501792,-31.4628
sample,0.901386,0.521993,-31.1169
sample,0.706334,0.522251,-31.6189
sample,0.799205,0.5506,-31.0513
sample,1.00242,0.543068,-32.1897
sample,0.994296,0.516336,-32.0968
sample,0.931406,0.552845,-31.3839
sample,0.841606,0.509622,-31.4048
sample,0.80912,0.505425,-31.037
sample,0.793969,0.560169,-29.938
sample,0.782518,0.486761,-29.0783
sample,0.896639,0.470141,-29.3218
sample,0.783574,0.57315,-29.2792
sample,0.852245,0.632205,-29.8817
sample,0.740133,0.630404,-29.8812
sample,0.909705,0.545715,-29.0321
sample,0.911878,0.545976,-28.7729
sample,0.885138,0.495633,-28.7591
sample,0.885138,0.495633,-28.7591
sample,0.866551,0.593977,-29.1352
sample,0.920194,0.522171,-28.9264
sample,0.789691,0.527334,-28.6566
sample,0.667266,0.728851,-31.6871
sample,1.08637,0.460993,-32.6705
sample,0.88184,0.531556,-28.6874
sample,0.904992,0.499421,-28.692
sample,0.874193,0.473218,-28.6698
sample,0.764308,0.542698,-28.6758
sample,0.764308,0.542698,-28.6758
sample,0.927563,0.578938,-30.2816
sample,0.750603,0.523982,-30.838
sample,0.737727,0.5325,-31.0013
sample,0.773616,0.711959,-32.1482
sample,0.912241,0.827142,-33.9594
sample,0.833448,0.362266,-33.2546
sample,0.835202,0.406015,-31.0386
sample,0.835202,0.406015,-31.0386
sample,0.959984,0.426316,-31.5638
sample,0.922273,0.432864,-30.8013
sample,0.76676,0.441708,-30.3298
sample,0.898409,0.474551,-29.7347
sample,0.898409,0.474551,-29.7347
sample,0.81502,0.602253,-29.0518
sample,0.827595,0.574058,-28.7529
sample,0.889718,0.463254,-28.9486
sample,0.954824,0.538534,-29.2189
sample,0.879398,0.586721,-29.0093
sample,0.819094,0.465076,-31.8277
sample,0.697548,0.601077,-29.7062
sample,0.970578,0.533017,-29.3913
sample,0.860063,0.503453,-28.4692
sample,0.860063,0.503453,-28.4692
sample,0.788082,0.537659,-28.5624
sample,0.705332,0.6128,-29.6704
sample,0.87413,0.61258,-29.305
sample,0.949797,0.558607,-29.2736
sample,0.835274,0.711816,-30.8069
sample,0.820768,0.412606,-29.9843
sample,0.820768,0.412606,-29.9843
sample,0.795855,0.500406,-28.7039
sample,0.795855,0.500406,-28.7039
sample,0.795855,0.500406,-28.7039
sample,1.16983,0.491136,-34.612
sample,0.941805,0.533301,-29.2148
sample,0.922308,0.559305,-28.9244
sample,0.792064,0.552723,-28.6029
sample,0.855955,0.498452,-28.4492
sample,0.866421,0.478657,-28.6019
sample,0.821356,0.540267,-28.4899
sample,0.742309,0.520296,-29.6931
sample,0.873429,0.536925,-29.5033
sample,0.791965,0.451335,-29.3001
sample,0.870917,0.475106,-29.1679
sample,0.873955,0.483304,-28.6666
sample,0.864974,0.546017,-29.9727
sample,0.934715,0.700345,-32.0953
sample,0.891021,0.431785,-30.7682
sample,0.818843,0.535775,-29.7724
sample,0.723008,0.643807,-31.2026
sample,0.666372,0.536008,-31.0119
sample,0.759538,0.593683,-30.8327
sample,0.977266,0.495233,-29.8011
sample,0.977266,0.495233,-29.8011
sample,0.878834,0.503597,-28.8077
sample,0.972469,0.625032,-30.2065
sample,0.876679,0.49394,-28.6587
sample,0.729125,0.492706,-29.0924
sample,0.891903,0.568104,-28.9145
sample,0.829696,0.43675,-29.2128
sample,0.829696,0.43675,-29.2128
sample,0.846856,0.574916,-28.8401
sample,0.881353,0.479783,-28.7633
sample,0.834562,0.535887,-28.6042
sample,0.701072,0.467273,-29.7422
sample,0.835539,0.466152,-28.7852
sample,0.765367,0.456961,-29.0085
sample,0.735066,0.464337,-29.1908
sample,0.848424,0.480801,-28.5192
sample,0.848424,0.480801,-28.5192
sample,0.815645,0.494388,-28.4439
sample,0.736181,0.546082,-28.9201
sample,0.920014,0.836178,-33.0075
sample,0.952471,0.75437,-31.6859
sample,0.918606,0.744114,-31.3538
sample,0.733434,0.752662,-31.5861
sample,0.915177,0.772627,-32.3235
sample,0.562795,0.45424,-33.6627
sample,0.539742,0.597805,-32.3309
sample,1.04503,0.532998,-30.8192
sample,0.869109,0.513517,-28.8417
sample,0.79583,0.53009,-28.5918
sample,0.910585,0.514381,-28.9953
sample,0.928172,0.514509,-28.845
sample,0.928172,0.514509,-28.845
sample,1.00086,0.571909,-29.7862
sample,0.917549,0.589971,-29.1276
sample,0.712993,0.712148,-30.9576
sample,0.86915,0.714191,-30.72
sample,0.72043,0.395449,-31.4156
sample,0.927765,0.399313,-31.034
sample,0.764265,0.419272,-30.1961
sample,0.780406,0.482147,-28.6778
sample,0.780406,0.482147,-28.6778
sample,0.74409,0.680921,-30.3032
sample,0.895845,0.680327,-30.2417
sample,1.13148,0.65165,-32.3466
sample,1.13228,0.732198,-33.1169
sample,1.02055,0.611326,-30.3431
sample,0.951811,0.469025,-29.4418
sample,0.698285,0.499294,-29.3148
sample,0.895632,0.532608,-28.9036
sample,0.824822,0.514917,-28.6868
sample,0.802205,0.528433,-28.7378
sample,0.980863,0.634649,-30.3739
sample,0.980863,0.634649,-30.3739
sample,0.959154,0.629786,-30.1239
sample,0.704619,0.489495,-29.538
sample,0.96716,0.533765,-29.3229
sample,0.792453,0.660053,-29.8902
sample,0.901463,0.443719,-29.3559
sample,0.761234,0.436492,-29.5029
sample,0.829787,0.475436,-28.6167
sample,0.798104,0.467489,-28.9869
sample,0.798104,0.467489,-28.9869
sample,0.801144,0.55067,-28.876
sample,0.845206,0.452006,-29.1495
sample,0.820404,0.470675,-28.8072
sample,0.912529,0.491522,-29.0077
sample,0.825172,0.639532,-29.6981
sample,0.794925,0.717412,-31.2159
sample,0.855575,0.628552,-29.4863
sample,0.836581,0.400892,-30.3218
sample,0.740003,0.451069,-29.4955
sample,0.763714,0.443379,-29.4043
sample,0.841508,0.505876,-28.4151
sample,0.873068,0.512103,-28.7486
sample,0.690154,0.533029,-29.5877
sample,0.896787,0.776904,-32.405
sample,0.889988,0.406033,-31.2059
sample,0.978802,0.440783,-31.3984
sample,0.978802,0.440783,-31.3984
sample,0.990462,0.544777,-30.5297
sample,0.891951,0.482991,-29.6521
sample,0.89226,0.573764,-29.8944
sample,0.865636,0.464296,-29.7312
sample,0.812483,0.614492,-29.6962
sample,0.83246,0.435778,-29.9702
sample,0.83246,0.435778,-29.9702
sample,0.942921,0.409298,-31.6442
sample,0.942921,0.409298,-31.6442
sample,1.00039,0.513296,-30.7279
sample,0.868059,0.536279,-28.6951
sample,0.797766,0.511794,-28.4608
sample,0.98344,0.517599,-29.485
sample,0.961467,0.502236,-29.251
sample,0.829113,0.538068,-28.4615
sample,0.712297,0.722756,-31.1328
sample,0.986583,0.457908,-30.1774
sample,0.971221,0.642097,-30.9512
sample,0.684159,0.638976,-30.9668
sample,0.713473,0.750091,-31.8916
sample,0.798887,0.737532,-31.1256
sample,0.871772,0.591318,-28.984
sample,0.780357,0.578132,-29.4383
sample,0.790022,0.537614,-30.097
sample,0.892699,0.541376,-30.2
sample,0.800622,0.562707,-29.0677
sample,0.78526,0.431016,-29.7951
sample,0.854486,0.409428,-30.3118
sample,0.845593,0.49204,-29.0425
sample,0.817125,0.504223,-28.6217
sample,0.914954,0.49686,-28.7782
sample,0.870946,0.618988,-29.2497
sample,0.874759,0.450785,-29.064
sample,0.745782,0.488374,-28.9513
sample,0.880951,0.519906,-28.8234
sample,0.880951,0.519906,-28.8234
sample,0.847926,0.500496,-28.4445
sample,0.847926,0.500496,-28.4445
sample,0.870154,0.543087,-30.9804
sample,0.870154,0.543087,-30.9804
sample,0.775898,0.522756,-31.1633
sample,0.740463,0.561972,-31.5438
sample,0.716197,0.505368,-31.6804
sample,0.748259,0.419522,-32.4959
sample,0.724299,0.419024,-32.8538
sample,0.761132,0.456294,-31.5187
sample,0.890508,0.468348,-31.0603
sample,0.73031,0.567755,-29.063
sample,0.954699,0.571197,-29.334
sample,0.823964,0.525857,-28.4884
sample,0.856577,0.48734,-28.4967
sample,0.763271,0.542794,-28.9931
sample,0.899578,0.542592,-28.7767
sample,0.991307,0.538689,-29.5959
sample,0.672889,0.556017,-29.6109
sample,0.738733,0.511491,-28.8435
sample,0.738733,0.511491,-28.8435
sample,0.715945,0.460067,-29.8909
sample,0.711746,0.517662,-29.3993
sample,0.779202,0.530359,-28.8829
sample,0.874378,0.467877,-29.0234
sample,0.771393,0.57201,-28.86
sample,0.799225,0.572396,-29.4549
sample,0.839294,0.436422,-29.7867
sample,0.831609,0.469604,-28.8839
sample,0.937245,0.478193,-29.4232
sample,0.720523,0.552264,-29.0584
sample,0.880459,0.550778,-29.288
sample,1.06929,0.469463,-32.4819
sample,0.992071,0.405868,-32.6288
sample,0.732318,0.683245,-31.0812
sample,0.724877,0.489059,-29.5679
sample,0.698129,0.604707,-30.1194
sample,0.775933,0.559639,-29.2054
sample,0.948159,0.464851,-29.4923
sample,0.8589,0.45338,-28.8984
sample,0.775274,0.491035,-28.8542
sample,0.793297,0.412006,-30.1206
sample,0.715697,0.517293,-29.4109
sample,0.715697,0.517293,-29.4109
sample,0.902124,0.424743,-29.7478
sample,0.872731,0.41909,-29.6808
sample,0.787519,0.559648,-28.8844
sample,0.699597,0.474424,-29.635
sample,0.693491,0.537676,-29.3986
sample,1.05698,0.489761,-31.214
sample,1.05698,0.489761,-31.214
sample,0.926078,0.519889,-29.0328
sample,0.988506,0.519789,-29.766
sample,0.872239,0.487643,-28.7655
sample,0.848575,0.566781,-29.3048
sample,0.793745,0.536724,-29.174
sample,0.817651,0.524862,-28.8709
sample,0.918605,0.506572,-29.3607
sample,0.922753,0.515664,-29.3772
sample,0.922753,0.515664,-29.3772
sample,0.922753,0.515664,-29.3772
sample,0.769079,0.489577,-29.2591
sample,0.91721,0.558635,-29.4875
sample,0.783991,0.56085,-29.4675
sample,0.89257,0.521911,-28.9025
sample,0.652013,0.578379,-30.1392
sample,0.71282,0.476475,-29.4951
sample,0.81317,0.541961,-28.6659
sample,0.861112,0.491372,-28.8043
sample,0.803483,0.490457,-28.9336
sample,0.89591,0.618776,-30.8677
sample,0.815623,0.438624,-31.3921
sample,0.788125,0.522151,-30.8203
sample,0.788125,0.522151,-30.8203
sample,0.718392,0.509244,-31.3407
sample,0.985327,0.468449,-32.2839
sample,0.836337,0.463619,-30.2259
sample,0.890593,0.623236,-31.6619
sample,1.01126,0.652118,-32.679
sample,0.765203,0.553573,-30.8106
sample,0.854903,0.618691,-31.4538
sample,0.856322,0.573139,-30.9053
sample,0.911395,0.71049,-32.9146
sample,1.00968,0.729396,-33.8292
sample,0.721019,0.504418,-31.092
sample,0.909414,0.52772,-30.7769
sample,0.927634,0.535801,-29.1539
sample,0.915534,0.535055,-29.0807
sample,0.729255,0.511034,-29.0939
sample,0.931241,0.570783,-29.2535
sample,0.906422,0.469869,-29.6733
sample,0.742238,0.583519,-29.8589
sample,0.739591,0.628061,-29.6428
sample,0.938222,0.597526,-29.4074
sample,0.938222,0.597526,-29.4074
sample,0.799921,0.461464,-29.3495
sample,0.862507,0.573318,-29.2962
sample,0.866912,0.481972,-29.1232
sample,0.808313,0.513132,-29.0463
sample,0.691666,0.469263,-30.7774
sample,0.691666,0.469263,-30.7774
sample,0.839411,0.587558,-29.8405
sample,0.811895,0.570526,-29.6907
sample,0.866478,0.510563,-29.4329
sample,0.786901,0.675746,-31.0342
sample,0.805506,0.628556,-29.6104
sample,0.820203,0.585794,-28.9788
sample,0.654306,0.532515,-30.1286
sample,0.648526,0.507526,-30.0747
sample,0.671019,0.488771,-30.0342
sample,0.729582,0.406416,-30.9786
sample,0.863701,0.33195,-35.1523
sample,0.748491,0.449711,-29.5142
sample,0.748491,0.449711,-29.5142
sample,0.795661,0.678738,-30.1004
sample,0.686404,0.583448,-29.5666
sample,0.914024,0.670541,-30.1275
sample,1.09007,0.613121,-31.3564
sample,0.970834,0.689955,-30.7592
sample,0.756367,0.740052,-31.2275
sample,0.851815,0.381949,-31.0723
sample,0.824924,0.396561,-30.3545
sample,0.842368,0.556876,-28.5751
sample,0.842368,0.556876,-28.5751
sample,0.952456,0.516596,-29.0925
sample,0.882972,0.57685,-28.8327
sample,0.720834,0.488117,-29.1007
sample,0.857694,0.49387,-28.993
sample,0.891969,0.569654,-29.3374
sample,0.764096,0.52537,-29.132
sample,0.656379,0.5251,-30.5401
sample,0.65809,0.480762,-30.129
sample,0.65809,0.480762,-30.129
sample,0.759015,0.520353,-28.6515
sample,0.759015,0.520353,-28.6515
sample,0.779192,0.624363,-29.3581
sample,0.899982,0.498316,-28.6604
sample,0.928244,0.534232,-28.8588
sample,0.923456,0.494277,-28.975
sample,0.88573,0.490311,-28.7089
sample,0.746522,0.432368,-29.7887
sample,0.709827,0.469405,-29.5436
sample,0.669129,0.694988,-31.0379
sample,0.78838,0.491268,-28.5707
sample,0.9275,0.72354,-31.162
sample,0.858083,0.492278,-28.6416
sample,0.726502,0.550889,-29.9887
sample,0.90357,0.535165,-28.6778
sample,0.709065,0.551645,-29.1473
sample,0.791311,0.47322,-28.6783
sample,0.757152,0.537976,-28.724
sample,0.894618,0.449517,-29.1383
sample,0.829183,0.525278,-28.4474
sample,0.907421,0.623936,-29.45
sample,0.840978,0.613543,-29.1342
sample,0.566143,0.692411,-32.4006
sample,0.909345,0.613838,-29.6271
sample,0.716089,0.556226,-29.3947
sample,0.931695,0.478793,-29.1066
sample,0.584781,0.608558,-31.1509
sample,0.719598,0.573216,-29.2022
sample,0.719598,0.573216,-29.2022
sample,0.963664,0.453556,-29.8991
sample,0.94337,0.442667,-29.8191
sample,0.855303,0.495563,-28.4772
sample,0.948371,0.545692,-29.1081
sample,0.762813,0.574142,-28.9189
sample,0.774294,0.545053,-28.6311
sample,0.838828,0.571871,-28.6878
sample,0.671742,0.58467,-29.7677
sample,0.842333,0.58082,-28.8023
sample,0.826032,0.450666,-29.0688
sample,0.804537,0.593817,-29.1507
sample,0.913814,0.446125,-29.5662
sample,0.967346,0.480701,-29.7247
sample,0.705686,0.532413,-29.2636
sample,0.761265,0.579346,-29.68
sample,0.956319,0.534457,-29.3329
sample,0.795329,0.539785,-28.5518
sample,0.799946,0.533445,-29.0492
sample,0.862234,0.458919,-29.3201
sample,0.928792,0.485095,-28.9889
sample,0.91709,0.503749,-28.8801
sample,0.823263,0.465864,-28.7076
sample,0.852849,0.484293,-28.8622
sample,0.822525,0.46847,-28.9922
sample,0.904793,0.465766,-29.2939
sample,0.798188,0.52543,-28.8083
sample,0.809982,0.477922,-29.1108
sample,0.809982,0.477922,-29.1108
sample,0.806457,0.459439,-28.7789
sample,1.01613,0.444147,-31.1497
sample,0.743407,0.643116,-29.7916
sample,0.881471,0.448108,-29.0424
sample,0.781011,0.526197,-28.5328
sample,0.781011,0.526197,-28.5328
sample,0.875331,0.524466,-28.8588
sample,0.799674,0.526979,-29.391
sample,0.872286,0.425868,-30.2118
sample,0.761872,0.441567,-31.7349
sample,0.709147,0.626999,-29.8184
sample,0.876296,0.383051,-31.188
sample,0.761754,0.545013,-28.7909
sample,0.561712,0.661435,-31.9625
sample,0.561712,0.661435,-31.9625
sample,0.82085,0.570992,-28.7776
sample,0.951613,0.466814,-29.5166
sample,0.916431,0.618752,-29.4837
sample,0.968877,0.458814,-29.9029
sample,0.875488,0.565685,-28.7647
sample,0.757672,0.525144,-28.7159
sample,0.860049,0.573821,-29.0969
sample,0.78168,0.560356,-28.9809
sample,0.777068,0.559789,-28.8123
sample,0.794653,0.507493,-28.6491
sample,0.77008,0.552462,-28.6931
sample,0.860511,0.749072,-31.2761
sample,0.796364,0.418147,-29.664
sample,0.851975,0.434807,-29.1739
sample,0.805481,0.417086,-29.6717
sample,0.802722,0.461938,-28.738
sample,0.880225,0.494802,-29.5963
sample,0.781408,0.469263,-30.0304
sample,0.67464,0.490891,-31.012
sample,0.861278,0.525703,-29.7137
sample,0.857945,0.50012,-29.7253
sample,0.623376,0.563513,-31.5881
sample,0.79423,0.490442,-29.7761
sample,0.992063,0.550666,-31.3121
sample,0.68256,0.477461,-31.0201
sample,0.750929,0.527778,-29.999
sample,0.821718,0.565372,-28.6352
sample,1.01162,0.665318,-30.9655
sample,0.941239,0.49347,-30.4409
sample,0.941239,0.49347,-30.4409
sample,0.927017,0.567235,-30.3818
sample,0.687145,0.601376,-31.0674
sample,0.833507,0.592411,-30.245
sample,0.816154,0.574842,-30.077
sample,0.772062,0.506583,-29.9301
sample,0.772062,0.506583,-29.9301
sample,0.814674,0.559719,-29.9528
sample,0.836223,0.464068,-29.9674
sample,0.858438,0.478542,-29.5154
sample,0.885007,0.5926,-29.9376
sample,0.864093,0.456781,-29.9973
sample,0.76331,0.411827,-30.758
sample,0.838263,0.433822,-29.9088
sample,0.834802,0.469559,-30.072
sample,1.00242,0.488961,-31.4674
sample,0.835376,0.624929,-30.7897
sample,0.884806,0.425669,-31.1518
sample,0.844829,0.545355,-30.1162
sample,0.850575,0.704731,-31.9798
sample,0.774387,0.488569,-30.0783
sample,0.699824,0.535022,-30.6602
sample,0.820549,0.54304,-28.5173
sample,0.789763,0.546837,-28.6947
sample,0.754132,0.522942,-28.8723
sample,0.770022,0.530098,-28.7869
sample,0.91198,0.537757,-28.7426
sample,0.805198,0.625328,-29.3037
sample,0.853092,0.387691,-30.8369
sample,0.853092,0.387691,-30.8369
sample,0.982257,0.704789,-31.1238
sample,0.710931,0.742585,-31.5308
sample,0.718205,0.737114,-32.015
sample,0.731791,0.764956,-32.4208
sample,0.782212,0.699999,-31.1368
sample,0.839255,0.632007,-30.1241
sample,0.818335,0.611899,-29.1891
sample,0.84641,0.546362,-28.7628
sample,0.846374,0.481102,-28.9217
sample,0.739006,0.47037,-29.4791
sample,0.924148,0.537726,-29.2429
sample,0.773767,0.577892,-29.2805
sample,0.583497,0.568109,-31.4251
sample,0.66969,0.573845,-30.0796
sample,0.95843,0.615067,-30.0712
sample,0.780952,0.458263,-29.1061
sample,0.780952,0.458263,-29.1061
sample,0.780952,0.458263,-29.1061
sample,0.894831,0.476755,-28.9841
sample,0.868172,0.574182,-28.9803
sample,0.756185,0.540714,-28.7134
sample,0.867686,0.480264,-28.7113
sample,0.814867,0.643479,-29.5444
sample,0.82734,0.594974,-29.4825
sample,0.791704,0.530791,-29.0749
sample,0.915567,0.538614,-29.5376
sample,0.75787,0.540244,-29.4697
sample,0.583829,0.580464,-31.8154
sample,0.63604,0.544949,-30.8725
sample,0.824586,0.613971,-29.9186
sample,0.947955,0.576645,-30.4275
sample,0.945084,0.491011,-29.8925
sample,0.960629,0.463386,-30.4217
sample,0.840672,0.560209,-28.6043
sample,0.864235,0.59794,-28.9955
sample,0.642708,0.783354,-32.6093
sample,0.630447,0.681293,-31.1993
sample,0.997272,0.630173,-30.214
sample,0.813785,0.724552,-30.8326
sample,0.93364,0.631906,-29.699
sample,0.851157,0.603401,-29.0233
sample,0.925435,0.448986,-29.5945
sample,0.940033,0.498562,-29.0416
sample,0.877454,0.52387,-28.5393
sample,0.77322,0.707373,-30.6434
sample,0.892816,0.390717,-31.1863
sample,0.690772,0.685943,-30.9588
sample,0.973807,0.622619,-30.2036
sample,0.891207,0.650778,-29.8608
sample,0.615424,0.691767,-31.6053
sample,0.555575,0.640947,-31.9203
sample,1.13028,0.47911,-33.4903
sample,0.792696,0.578441,-28.9026
sample,0.760922,0.537535,-29.016
sample,0.718639,0.517718,-29.3138
sample,0.929489,0.542632,-29.2095
sample,0.929489,0.542632,-29.2095
sample,0.929489,0.542632,-29.2095
sample,0.922568,0.545243,-29.1802
sample,0.775761,0.566789,-29.3679
sample,0.778267,0.468214,-29.3757
sample,0.959625,0.461525,-30.4422
sample,0.732233,0.500864,-29.6893
sample,0.900159,0.537676,-29.4437
sample,0.875637,0.48831,-29.0669
sample,0.949971,0.731942,-31.6913
sample,1.04551,0.745674,-32.6431
sample,1.04328,0.730067,-31.9887
sample,0.849212,0.613577,-29.1542
sample,0.889069,0.538861,-28.8992
sample,0.857433,0.535302,-28.482
sample,0.859956,0.490425,-28.4944
sample,0.919824,0.552291,-28.8804
sample,0.794319,0.535312,-28.5296
sample,0.880532,0.519561,-28.7174
sample,0.809943,0.503216,-28.5818
sample,0.900952,0.55303,-28.8117
sample,0.683411,0.502907,-29.5601
sample,0.558002,0.517074,-31.9597
sample,0.782979,0.450492,-29.054
sample,0.782979,0.450492,-29.054
sample,0.811536,0.655582,-29.7816
sample,0.732564,0.664835,-30.1853
sample,0.775309,0.47242,-28.7708
sample,0.925369,0.447678,-29.471
sample,0.925369,0.447678,-29.471
sample,0.940452,0.493322,-29.073
sample,0.837148,0.544836,-28.5154
sample,0.80538,0.566607,-28.6968
sample,0.904402,0.670721,-30.2301
sample,1.11934,0.582981,-31.9868
sample,0.873335,0.501763,-28.6479
sample,1.07983,0.747658,-32.7622
sample,1.07983,0.747658,-32.7622
sample,0.939124,0.692745,-30.7388
sample,1.18387,0.586202,-33.4774
sample,1.08826,0.544247,-31.4107
sample,0.91527,0.52939,-28.8778
sample,0.758432,0.513198,-28.692
sample,0.81853,0.411851,-29.85
sample,0.867374,0.5451,-28.5747
sample,0.881972,0.524916,-28.5572
sample,0.768336,0.575991,-28.897
sample,0.730225,0.606251,-29.4152
sample,0.730225,0.606251,-29.4152
sample,0.865122,0.544541,-28.5678
sample,0.823024,0.540863,-28.5584
sample,0.781086,0.559919,-29.7241
sample,0.946287,0.696737,-31.8243
sample,0.879718,0.882165,-34.8899
sample,0.879622,0.934227,-35.8477
sample,0.898299,0.842901,-34.1958
sample,0.95505,0.796193,-33.5461
sample,0.600061,0.402275,-35.3994
sample,1.1803,0.664387,-33.7916
sample,1.15641,0.633936,-33.1932
sample,0.718218,0.615986,-30.0803
sample,0.801486,0.438024,-29.7382
sample,0.84733,0.650787,-30.0875
sample,0.823613,0.419229,-30.1497
sample,0.812785,0.470767,-29.1237
sample,0.759837,0.425622,-29.7199
sample,0.929568,0.584708,-29.1594
sample,0.732289,0.464901,-29.2154
sample,0.730308,0.633678,-29.7177
sample,0.779699,0.466271,-28.8795
sample,0.99926,0.477128,-30.1769
sample,0.752998,0.478807,-28.9442
sample,1.01397,0.394229,-33.2204
sample,0.67334,0.406362,-31.9443
sample,0.67334,0.406362,-31.9443
sample,0.750463,0.482453,-28.9349
sample,0.952292,0.534369,-29.1764
sample,0.710221,0.519386,-29.5264
sample,0.685193,0.572639,-29.9463
sample,0.637075,0.531562,-30.5444
sample,0.756239,0.5481,-28.9127
sample,0.939656,0.54313,-29.0507
sample,0.746857,0.610916,-29.405
sample,0.804129,0.505155,-28.5152
sample,0.844656,0.517296,-28.7083
sample,0.819021,0.459937,-29.0595
sample,0.819021,0.459937,-29.0595
sample,0.818869,0.437823,-29.5827
sample,0.944467,0.625737,-29.6982
sample,0.719351,0.587871,-29.2931
sample,0.982383,0.584027,-29.6391
sample,0.982383,0.584027,-29.6391
sample,1.04763,0.544892,-30.7362
sample,1.02942,0.514173,-30.5259
sample,0.727647,0.717407,-31.213
sample,0.923902,0.696863,-30.8283
sample,0.826628,0.572865,-28.8231
sample,0.816493,0.616425,-29.4649
sample,0.949596,0.556484,-29.4272
sample,0.784206,0.465102,-29.0662
sample,0.839397,0.537989,-28.5005
sample,0.886492,0.477156,-28.7098
sample,0.962015,0.559561,-29.2833
sample,0.957075,0.511821,-29.1696
sample,0.849494,0.450369,-28.8824
sample,0.944126,0.565914,-29.1471
sample,0.867495,0.459007,-29.0868
sample,0.713771,0.522459,-29.3463
sample,0.713771,0.522459,-29.3463
sample,0.713771,0.522459,-29.3463
sample,0.947225,0.454446,-29.9607
sample,0.947225,0.454446,-29.9607
sample,0.744461,0.44672,-29.8361
sample,0.781693,0.577734,-28.8306
sample,0.873126,0.511762,-28.781
sample,0.853085,0.64102,-29.8236
sample,0.852288,0.519492,-29.0069
sample,0.806299,0.635663,-29.9184
sample,1.00633,0.654521,-31.0561
sample,0.904402,0.519607,-29.0709
sample,0.908273,0.624932,-29.8984
sample,0.784189,0.469311,-28.7804
sample,0.968458,0.455071,-29.9657
sample,0.805533,0.492435,-28.5249
sample,0.775316,0.488795,-29.3129
sample,0.868987,0.489615,-29.6322
sample,0.881444,0.504379,-29.0028
sample,0.881444,0.504379,-29.0028
sample,1.06082,0.458065,-32.3575
sample,0.993884,0.588271,-30.282
sample,0.647404,0.541183,-30.3955
sample,0.642382,0.616839,-30.8804
sample,0.814013,0.572235,-29.4091
sample,0.798376,0.504423,-28.4897
sample,0.867698,0.423689,-29.5239
sample,0.867698,0.423689,-29.5239
sample,0.808243,0.579,-28.7835
sample,0.784654,0.454918,-28.9132
sample,0.784654,0.454918,-28.9132
sample,0.911816,0.427089,-29.7786
sample,0.93009,0.580701,-29.1333
sample,0.652154,0.46815,-30.5582
sample,0.583475,0.53734,-31.2319
sample,0.583475,0.53734,-31.2319
sample,0.933381,0.574722,-29.231
sample,0.776849,0.497712,-28.6968
sample,0.765553,0.563514,-28.848
sample,0.765867,0.469611,-28.8976
sample,0.89347,0.504227,-29.0916
sample,0.88469,0.501875,-28.5568
sample,0.886626,0.564506,-28.7595
sample,0.887681,0.523763,-29.4643
sample,0.777516,0.573627,-29.4807
sample,0.949788,0.521685,-29.7218
sample,0.901203,0.500279,-29.7112
sample,0.964642,0.495274,-29.3581
sample,1.05289,0.609273,-31.0339
sample,0.75218,0.648866,-30.0779
sample,0.916685,0.426647,-30.2065
sample,0.768746,0.446059,-29.3437
sample,0.812934,0.581317,-28.9396
sample,0.705333,0.519839,-29.2973
sample,0.708527,0.573524,-29.4382
sample,0.742312,0.511003,-28.9431
sample,0.811615,0.608769,-29.1856
sample,0.84669,0.486479,-28.4804
sample,0.650475,0.583425,-29.9928
sample,0.721566,0.516309,-29.5027
sample,0.721566,0.516309,-29.5027
sample,0.676871,0.544737,-29.5
sample,1.07715,0.524973,-31.1736
sample,1.07422,0.544841,-30.9955
sample,0.548209,0.658965,-32.0732
sample,0.550574,0.575344,-31.6928
sample,0.541538,0.594847,-31.8773
sample,0.75461,0.470864,-28.9164
sample,0.903473,0.483427,-28.7942
sample,0.746727,0.57797,-29.0356
sample,0.913986,0.547472,-29.7327
sample,0.783227,0.5245,-29.4532
sample,0.826399,0.564171,-29.5556
sample,0.826399,0.564171,-29.5556
sample,0.87754,0.466684,-29.7017
sample,0.854933,0.545441,-28.834
sample,1.0417,0.536496,-30.6847
sample,0.768686,0.459468,-29.2524
sample,0.978596,0.523892,-29.709
sample,0.923691,0.561921,-29.254
sample,0.852907,0.449458,-29.2185
sample,0.711187,0.404189,-31.4826
sample,0.84077,0.451231,-29.1794
sample,0.84077,0.451231,-29.1794
sample,0.855898,0.601678,-29.0266
sample,0.886943,0.576651,-28.8635
sample,0.840602,0.449644,-28.8826
sample,0.739667,0.636768,-30.9394
sample,0.709629,0.824405,-34.1399
sample,0.709629,0.824405,-34.1399
sample,0.732341,0.695213,-31.822
sample,0.700189,0.647724,-31.3355
sample,0.859185,0.583469,-30.0615
sample,0.935983,0.537961,-29.1558
sample,0.915243,0.496978,-29.0009
sample,0.903013,0.472002,-29.0569
sample,0.765546,0.436057,-29.4715
sample,0.765546,0.436057,-29.4715
sample,0.923609,0.427912,-29.9983
sample,0.923609,0.427912,-29.9983
sample,0.956313,0.403559,-31.3778
sample,0.845377,0.490653,-28.5676
sample,0.971561,0.557875,-29.4718
sample,0.854035,0.609069,-29.1974
sample,0.851685,0.48096,-28.5319
sample,0.960287,0.456223,-31.3244
sample,0.839158,0.488148,-30.025
sample,0.973673,0.486553,-31.5984
sample,1.00888,0.473703,-30.3176
sample,0.820838,0.564981,-28.6333
sample,0.819442,0.568946,-28.7952
sample,0.791099,0.471839,-28.7661
sample,0.802187,0.569941,-28.8038
sample,0.813824,0.511591,-28.5181
sample,0.851078,0.387193,-31.2952
sample,0.805555,0.806485,-32.8084
sample,0.741107,0.791845,-32.7488
sample,0.686635,0.780028,-32.8024
sample,1.01845,0.581701,-31.1323
sample,0.613604,0.495471,-32.7962
sample,0.591486,0.619153,-31.1376
sample,0.521503,0.576491,-32.3953
sample,0.521503,0.576491,-32.3953
sample,0.831709,0.482498,-28.5515
sample,0.893746,0.536354,-28.6799
sample,0.783394,0.564627,-28.7889
sample,0.757482,0.436158,-29.5474
sample,0.901753,0.493494,-28.7369
sample,0.861935,0.544379,-28.5362
sample,0.861935,0.544379,-28.5362
sample,0.743174,0.495282,-28.8281
sample,0.949206,0.581081,-29.2903
sample,0.727251,0.475941,-29.1744
sample,0.81021,0.601044,-29.0339
sample,0.805137,0.602022,-29.1239
sample,0.805137,0.602022,-29.1239
sample,0.812247,0.550199,-28.5419
sample,0.855199,0.592058,-29.2493
sample,0.848212,0.441355,-29.0282
sample,0.830677,0.501337,-28.4175
sample,0.87534,0.453765,-29.0641
sample,0.778735,0.450588,-29.17
sample,0.778735,0.450588,-29.17
sample,0.830013,0.451445,-29.1214
sample,0.830013,0.451445,-29.1214
sample,0.830013,0.451445,-29.1214
sample,0.819152,0.555046,-28.6185
sample,0.82149,0.495,-28.4814
sample,0.869426,0.539789,-28.5787
sample,0.774916,0.49958,-28.8138
sample,0.647252,0.514215,-30.2379
sample,0.716901,0.546913,-29.2859
sample,0.550575,0.551827,-31.9984
sample,0.948137,0.544225,-29.0766
sample,0.808602,0.51228,-28.4302
sample,1.14934,0.581405,-32.5192
sample,1.14934,0.581405,-32.5192
sample,0.992532,0.561741,-29.6371
sample,0.857954,0.439974,-29.0841
sample,0.777543,0.548032,-28.6338
sample,0.777543,0.548032,-28.6338
sample,0.861741,0.529348,-28.4717
sample,0.800122,0.562472,-28.648
sample,0.815607,0.478632,-28.6664
sample,0.824645,0.458833,-28.9577
sample,0.738064,0.452082,-29.5812
sample,0.778211,0.57229,-29.07
sample,0.842075,0.485734,-28.7562
sample,0.888999,0.478779,-28.832
sample,0.888999,0.478779,-28.832
sample,0.848156,0.461074,-28.7812
sample,0.820598,0.462198,-29.3908
sample,0.916557,0.548769,-29.896
sample,0.816003,0.54724,-29.6022
sample,0.84909,0.47628,-28.5654
sample,0.674327,0.53092,-29.5364
sample,0.766352,0.604771,-29.1849
sample,0.719075,0.559492,-30.387
sample,0.814126,0.671689,-31.269
sample,1.15633,0.660841,-34.1206
sample,0.868187,0.621118,-30.5586
sample,0.70004,0.677319,-31.7632
sample,0.678256,0.642023,-31.5418
sample,0.76698,0.606262,-29.272
sample,0.88842,0.478939,-29.1776
sample,0.889184,0.536833,-29.0845
sample,0.945229,0.557681,-29.576
sample,0.945229,0.557681,-29.576
sample,0.820139,0.48192,-28.6547
sample,1.00167,0.574259,-29.9646
sample,1.00167,0.574259,-29.9646
sample,0.667475,0.672793,-30.8673
sample,0.80462,0.598506,-29.1665
sample,0.807081,0.484425,-28.6349
sample,0.755874,0.439353,-29.5427
sample,0.678526,0.634103,-30.1231
sample,0.734974,0.706503,-30.7489
sample,0.977073,0.655076,-30.3188
sample,0.799588,0.598851,-28.9908
sample,0.788093,0.534302,-28.5276
sample,0.788093,0.534302,-28.5276
sample,0.905841,0.522538,-30.909
sample,0.960949,0.516058,-29.2798
sample,0.960949,0.516058,-29.2798
sample,0.863875,0.560804,-29.1054
sample,0.898607,0.54084,-29.185
sample,0.798667,0.536976,-28.8984
sample,0.861466,0.465126,-29.0948
sample,0.960435,0.483101,-29.7031
sample,0.811883,0.486828,-28.8039
sample,0.851198,0.523507,-29.1033
sample,0.865926,0.54961,-29.285
sample,0.853388,0.458792,-29.4684
sample,0.83524,0.501619,-29.211
sample,0.812798,0.493561,-28.4556
sample,0.969483,0.598093,-29.6196
sample,1.08926,0.525945,-31.4313
sample,1.00185,0.491456,-29.9527
sample,0.667257,0.494339,-30.626
sample,0.894763,0.55457,-30.0339
sample,0.750296,0.566722,-30.207
sample,0.639331,0.538064,-31.3723
sample,0.898399,0.575003,-30.2074
sample,0.757259,0.462554,-29.0008
sample,0.775495,0.427784,-29.5296
sample,0.775495,0.427784,-29.5296
sample,0.64194,0.452778,-31.0005
sample,0.631426,0.45139,-31.3874
sample,0.841721,0.492527,-28.5485
sample,0.806303,0.537411,-28.589
sample,0.863744,0.451894,-29.3903
sample,0.82813,0.581702,-29.4361
sample,0.836116,0.520293,-28.5256
sample,0.788372,0.549817,-28.8621
sample,0.788372,0.549817,-28.8621
sample,0.792214,0.396174,-30.8869
sample,0.879672,0.43713,-29.6499
sample,0.755414,0.578208,-29.1807
sample,0.896892,0.561576,-29.5963
sample,0.649462,0.573213,-30.7849
sample,0.730216,0.591773,-30.0714
sample,0.737272,0.531283,-29.0715
sample,0.862878,0.54676,-28.7934
sample,0.830011,0.582142,-29.055
sample,0.661003,0.457737,-30.7401
sample,0.664025,0.563545,-29.9659
sample,0.755815,0.578603,-29.2058
sample,0.90919,0.458504,-29.4482
sample,0.711454,0.5932,-30.2902
sample,0.705678,0.643019,-30.6562
sample,0.789147,0.561411,-29.3312
sample,0.992979,0.675038,-31.3881
sample,1.11877,0.672778,-32.9207
sample,0.886776,0.625247,-30.0505
sample,0.741503,0.443339,-30.4333
sample,0.921945,0.52442,-29.7356
sample,0.739823,0.554709,-29.8598
sample,0.965725,0.610538,-30.8343
sample,0.782121,0.610633,-30.3494
sample,0.833903,0.540871,-29.5726
sample,0.865102,0.486895,-28.5258
sample,0.931526,0.485543,-29.0062
sample,0.982405,0.410875,-31.5428
sample,0.990322,0.719734,-31.3684
sample,1.01213,0.760242,-32.1804
sample,1.11271,0.674801,-32.1923
sample,0.742289,0.508334,-28.7998
sample,0.742289,0.508334,-28.7998
sample,0.776502,0.569194,-28.7788
sample,0.905602,0.488945,-28.7898
sample,0.89826,0.533862,-28.65
sample,0.89826,0.533862,-28.65
sample,0.797644,0.460278,-28.7792
sample,0.815668,0.621945,-29.2443
sample,0.780961,0.433252,-30.7509
sample,0.780961,0.433252,-30.7509
sample,0.930012,0.420336,-32.5937
sample,0.767125,0.401436,-31.8574
sample,0.803962,0.487555,-29.7029
sample,0.89622,0.512815,-28.7114
sample,0.937576,0.505876,-29.0112
sample,0.742509,0.666895,-30.6005
sample,0.742509,0.666895,-30.6005
sample,0.751509,0.412004,-30.2812
sample,0.945732,0.426547,-30.2879
sample,1.02337,0.703096,-31.4186
sample,0.918745,0.61563,-29.4289
sample,0.872453,0.498417,-28.5244
sample,0.83003,0.535922,-28.6506
sample,0.810612,0.548176,-28.5693
sample,0.832108,0.624462,-29.2999
sample,0.991115,0.479589,-30.0377
sample,0.746013,0.517384,-28.8707
sample,0.742231,0.507613,-28.913
sample,0.85724,0.429396,-29.4447
sample,0.985622,0.450998,-30.4272
sample,0.864184,0.488122,-28.645
sample,0.864184,0.488122,-28.645
sample,0.829356,0.560615,-28.9363
sample,0.682598,0.493123,-29.8934
sample,0.738898,0.468201,-29.484
sample,0.846279,0.419475,-30.3376
sample,0.805723,0.657062,-30.4898
sample,0.827507,0.529379,-29.1926
sample,0.791879,0.460203,-29.5748
sample,0.815642,0.702175,-30.7993
sample,0.740944,0.651888,-30.2394
sample,0.805275,0.684302,-30.5201
sample,1.04661,0.725719,-32.2944
sample,0.978411,0.665312,-30.8076
sample,0.977735,0.653748,-30.6448
sample,1.13293,0.589327,-32.2669
sample,0.728019,0.602832,-29.4945
sample,0.672085,0.648268,-30.4815
sample,1.00283,0.500084,-29.9973
mean,0.836425,0.537293,-28.461
